<?xml version='1.0' encoding='utf-8'?>
<svg xmlns="http://www.w3.org/2000/svg" width="100%" height="100%" viewBox="0 0 22.0 16.0">
  <rect x="0.5" y="0.5" width="21.0" height="15.0" rx="2" ry="2" id="shield" style="fill:#3878c7;stroke:#2e68a0;stroke-width:1;"/>
</svg>
