<?xml version='1.0' encoding='utf-8'?>
<svg width="100%" height="100%" viewBox="0 0 55 26" xmlns="http://www.w3.org/2000/svg">
  <rect x="0.5" y="0.5" width="54" height="25" style="stroke-width:1;stroke:#003478;fill:#003478;" id="shield"/>
</svg>