<?xml version='1.0' encoding='utf-8'?>
<svg width="100%" height="100%" viewBox="0 0 27 15" xmlns="http://www.w3.org/2000/svg">
  <rect x="0.5" y="0.5" width="26" height="14" style="stroke-width:1;stroke:#003478;fill:#003478;" id="shield"/>
</svg>