<?xml version='1.0' encoding='utf-8'?>
<svg width="100%" height="100%" viewBox="0 0 80 28" xmlns="http://www.w3.org/2000/svg">
  <rect x="0.5" y="0.5" width="79" height="27" style="stroke-width:1;stroke:#000000;fill:#ffffff;" id="shield"/>
</svg>