<?xml version='1.0' encoding='utf-8'?>
<svg width="100%" height="100%" viewBox="0 0 63 24" xmlns="http://www.w3.org/2000/svg">
  <rect x="0.5" y="0.5" width="62" height="23" style="stroke-width:1;stroke:#006a4d;fill:#006a4d;" id="shield"/>
</svg>