{
"type": "FeatureCollection",
                                                                                
"features": [
{ "type": "Feature", "properties": { "Name": "", "Description": "" }, "geometry": { "type": "Polygon", "coordinates": [ [ [ -180.0, 180.0, 0.0 ], [ -180.0, -180.0, 0.0 ], [ 180.0, -180.0, 0.0 ], [ 180.0, 180.0, 0.0 ], [ -180.0, 180.0, 0.0 ] ], [ [ -73.880470347260641, 45.655390414576082 ], [ -73.88054305367325, 45.655438707848546 ], [ -73.880784095934942, 45.655597060618305 ], [ -73.881025964688547, 45.655754792914706 ], [ -73.884904066149247, 45.658274467172156 ], [ -73.886496637527216, 45.659309056869638 ], [ -73.88822991807595, 45.660434961526704 ], [ -73.889426176019242, 45.661212010284537 ], [ -73.889923194999739, 45.661534903681236 ], [ -73.88999906832565, 45.66158418625767 ], [ -73.890063705866623, 45.661626076184994 ], [ -73.891044669374722, 45.662263230462429 ], [ -73.892129920627681, 45.662968094985757 ], [ -73.893336807282722, 45.663751927995307 ], [ -73.894518502116554, 45.664519365988667 ], [ -73.894519449670369, 45.664519980882424 ], [ -73.896774272561615, 45.665984245248822 ], [ -73.899251976329225, 45.667593106469695 ], [ -73.900903699261548, 45.668665631906059 ], [ -73.904821288335015, 45.671209205937089 ], [ -73.905053463064363, 45.671360474446381 ], [ -73.905284869761473, 45.671512320754466 ], [ -73.905515505499864, 45.671664742941751 ], [ -73.90574536735285, 45.671817739070647 ], [ -73.906056451717603, 45.67202654199599 ], [ -73.906366094646287, 45.672236396139887 ], [ -73.906981027295075, 45.672659238490724 ], [ -73.906991883460918, 45.672666777695021 ], [ -73.90718966720155, 45.672804575926349 ], [ -73.907386835616677, 45.672942807207399 ], [ -73.907525098494062, 45.673040258458769 ], [ -73.907583386745699, 45.673081470198596 ], [ -73.907779318679019, 45.673220563533221 ], [ -73.907974629507081, 45.673360085853488 ], [ -73.908053788955741, 45.673416889649651 ], [ -73.908169317294579, 45.673500035801773 ], [ -73.908363380144465, 45.673640411993276 ], [ -73.908556816147041, 45.673781213079266 ], [ -73.909020209264256, 45.674122132595386 ], [ -73.909699809609606, 45.674625936931967 ], [ -73.910018400618398, 45.674862231572057 ], [ -73.910086819251319, 45.674912976362961 ], [ -73.910167934151161, 45.674973137558254 ], [ -73.911883626772649, 45.676245586407532 ], [ -73.911955671788135, 45.676299016990647 ], [ -73.912524378907008, 45.676720742950209 ], [ -73.913149147180732, 45.677184019441711 ], [ -73.913636743518836, 45.677545572834028 ], [ -73.913867199495002, 45.677715734212335 ], [ -73.914098555529563, 45.677885294821692 ], [ -73.914330808448099, 45.67805425231068 ], [ -73.914563955063571, 45.678222604372934 ], [ -73.914797992150028, 45.678390348666227 ], [ -73.915032916494468, 45.678557482884266 ], [ -73.915268724870984, 45.67872400472983 ], [ -73.91550541404068, 45.678889911896775 ], [ -73.915742980738983, 45.679055202106014 ], [ -73.915981421714065, 45.679219873078431 ], [ -73.916220733662584, 45.679383922535116 ], [ -73.916460913307006, 45.679547348224062 ], [ -73.916701957330986, 45.679710147884407 ], [ -73.916943862443958, 45.679872319273187 ], [ -73.917186625291052, 45.680033860165722 ], [ -73.91743024254292, 45.680194768319225 ], [ -73.920328689058906, 45.682101455691736 ], [ -73.924031018173807, 45.684536664579795 ], [ -73.925487324002972, 45.685494459139797 ], [ -73.925228644828579, 45.685694501746674 ], [ -73.925145709705276, 45.685758636957857 ], [ -73.924505865224788, 45.686253433478349 ], [ -73.924162248916332, 45.686519149419823 ], [ -73.924111615954047, 45.686558303214177 ], [ -73.923756831914986, 45.686832650807126 ], [ -73.923346758412734, 45.687149748066538 ], [ -73.923001882136916, 45.687416426307095 ], [ -73.922601739423939, 45.687725835154126 ], [ -73.922528891626939, 45.687782163984686 ], [ -73.922313326885217, 45.687948846321788 ], [ -73.922307564746447, 45.687953301528445 ], [ -73.921704219283129, 45.688419821122416 ], [ -73.921368917749191, 45.688679078546194 ], [ -73.921064647428608, 45.688914339506326 ], [ -73.920927424469369, 45.68902043901646 ], [ -73.920318593454923, 45.689491174596974 ], [ -73.919541766913824, 45.690091784661313 ], [ -73.919398045418831, 45.690202902185653 ], [ -73.919325383982212, 45.690257960372065 ], [ -73.918919634393745, 45.690566600624528 ], [ -73.918853472403654, 45.69061692738849 ], [ -73.918493739306285, 45.690890559678259 ], [ -73.918453434192855, 45.690921217677001 ], [ -73.918133971322703, 45.69116421499232 ], [ -73.917350800263819, 45.691759914633849 ], [ -73.91652298969106, 45.692391177931079 ], [ -73.915612952184347, 45.693085121434962 ], [ -73.914758262189096, 45.693736837792891 ], [ -73.913391699334511, 45.69477882195298 ], [ -73.913314432973465, 45.694838486951831 ], [ -73.915982454714126, 45.69655387176207 ], [ -73.915795302270126, 45.696696763976824 ], [ -73.914738809543891, 45.697506453110442 ], [ -73.914592836816169, 45.697618322886228 ], [ -73.914287837774737, 45.697852064312549 ], [ -73.914057478769834, 45.698028602198818 ], [ -73.913885774306635, 45.698160188581532 ], [ -73.913735959008804, 45.698261901270726 ], [ -73.913579918029896, 45.698367840124568 ], [ -73.913423876448661, 45.698473778756394 ], [ -73.91326783427796, 45.698579717175193 ], [ -73.913111456830862, 45.698685882588038 ], [ -73.912902041814291, 45.698828052326171 ], [ -73.912723865362651, 45.698949017728388 ], [ -73.912682474912941, 45.698990571345995 ], [ -73.912539749765344, 45.699133863721904 ], [ -73.9124165737081, 45.699257527572634 ], [ -73.912293396637153, 45.69938119176836 ], [ -73.912170219495763, 45.699504855360857 ], [ -73.912047041404335, 45.699628519226138 ], [ -73.911923863178671, 45.699752182542419 ], [ -73.911800683939262, 45.699875846203675 ], [ -73.911682942965243, 45.699994049579495 ], [ -73.911553521070971, 45.70012397569834 ], [ -73.91142542775647, 45.700252573969991 ], [ -73.91137461132567, 45.700291513791065 ], [ -73.911211105444409, 45.700416809895593 ], [ -73.911048019590964, 45.700541782236229 ], [ -73.910884931734302, 45.700666755338197 ], [ -73.910721843866199, 45.700791727637665 ], [ -73.910558754607678, 45.700916700210371 ], [ -73.910395665848725, 45.701041671618796 ], [ -73.910232575763303, 45.70116664326423 ], [ -73.91006954161351, 45.70129156785395 ], [ -73.90990099251168, 45.701420724339584 ], [ -73.909730949937156, 45.701523886757329 ], [ -73.909561071847605, 45.701626954497968 ], [ -73.909391191910586, 45.701730019849109 ], [ -73.909221311284952, 45.70183308499314 ], [ -73.909051430737776, 45.701936149459414 ], [ -73.908784084611895, 45.702098343821937 ], [ -73.908616910394414, 45.702199764794834 ], [ -73.908449735571963, 45.702301185523368 ], [ -73.908282559364594, 45.702402604714607 ], [ -73.908182907178883, 45.70246306227687 ], [ -73.908055331032926, 45.702505579428809 ], [ -73.907812625553561, 45.702586465607148 ], [ -73.907342333984843, 45.702743199132932 ], [ -73.906966878015325, 45.702868326906767 ], [ -73.906635276023323, 45.702941068773512 ], [ -73.906450094696424, 45.702999591928396 ], [ -73.906353029922826, 45.703030267200162 ], [ -73.905633857994502, 45.703257546330427 ], [ -73.905282635842966, 45.703368540139522 ], [ -73.904781203050064, 45.703527000243866 ], [ -73.904361956844852, 45.703659487559023 ], [ -73.90405745046742, 45.703755411358479 ], [ -73.903720739530556, 45.703861480151744 ], [ -73.903494916273502, 45.703949428288539 ], [ -73.903171668225866, 45.70407531665451 ], [ -73.902902251058123, 45.704180240326039 ], [ -73.902632876419659, 45.704285146113826 ], [ -73.902363500770491, 45.70439005126795 ], [ -73.902286598132804, 45.704419999667991 ], [ -73.902094122826426, 45.70449495579291 ], [ -73.90182474516233, 45.704599860579435 ], [ -73.901643674324859, 45.704670373953142 ], [ -73.901555366481077, 45.704704763832488 ], [ -73.901285985504899, 45.704809666456342 ], [ -73.900882493584604, 45.704966793560558 ], [ -73.900687865709784, 45.705299850509029 ], [ -73.900530061437891, 45.705569889292612 ], [ -73.900441760110155, 45.705722041109496 ], [ -73.900419024324563, 45.705761216875246 ], [ -73.900408995415191, 45.70577849754055 ], [ -73.900288071512406, 45.70598685898409 ], [ -73.900167905224592, 45.706193913352671 ], [ -73.900167146715489, 45.706195220295029 ], [ -73.900046221024468, 45.706403581473367 ], [ -73.899925216058577, 45.706612077549224 ], [ -73.899804288668491, 45.706820438452951 ], [ -73.899683360499125, 45.707028799124693 ], [ -73.899562296772288, 45.707237391683208 ], [ -73.899441366813548, 45.707445752089569 ], [ -73.899320435896513, 45.70765411238154 ], [ -73.899199503891822, 45.70786247243359 ], [ -73.899049589507001, 45.708120765409262 ], [ -73.899035018666282, 45.708145869921317 ], [ -73.898773603512339, 45.708336654869733 ], [ -73.898551269453705, 45.708498916306873 ], [ -73.898328934185486, 45.708661177274735 ], [ -73.898154639896518, 45.708788376813324 ], [ -73.898106588571139, 45.708823444328793 ], [ -73.897884248674387, 45.7089857061384 ], [ -73.89766190749117, 45.70914796751498 ], [ -73.897439616126576, 45.709310190488658 ], [ -73.897213283512158, 45.70947612799749 ], [ -73.896991473995271, 45.709638747030439 ], [ -73.89676966319854, 45.709801366532176 ], [ -73.896547851109233, 45.709963984703094 ], [ -73.896326037740053, 45.710126603342808 ], [ -73.896039538984866, 45.710336642666157 ], [ -73.895867231095536, 45.710462964984714 ], [ -73.895692999807792, 45.710375253030122 ], [ -73.895507775710186, 45.710485430144786 ], [ -73.895267019620263, 45.710628638584112 ], [ -73.895026262299638, 45.710771846516543 ], [ -73.894785503748324, 45.710915053942109 ], [ -73.894375300069228, 45.711159047894434 ], [ -73.893939781536005, 45.711418094201868 ], [ -73.890814716923728, 45.71376442143513 ], [ -73.890122937052652, 45.713310511749945 ], [ -73.88933414573998, 45.713865804707602 ], [ -73.888545345194316, 45.714421087695193 ], [ -73.887136674224948, 45.713501576596087 ], [ -73.885576911497438, 45.714662335172385 ], [ -73.884657032539479, 45.714056574041685 ], [ -73.884116113136884, 45.714445826955654 ], [ -73.883068296810649, 45.715199826999559 ], [ -73.882023832447928, 45.714511983993447 ], [ -73.881149700289569, 45.715067252791549 ], [ -73.880720197970675, 45.715340075617206 ], [ -73.880288741020806, 45.71561413695995 ], [ -73.879596707314946, 45.715180691902297 ], [ -73.877989600975312, 45.716255245347931 ], [ -73.875208909870295, 45.716598933496833 ], [ -73.875312457111576, 45.718836670703304 ], [ -73.873970247367424, 45.719257681874211 ], [ -73.873330376967544, 45.719744626838505 ], [ -73.871769968866161, 45.720932053385354 ], [ -73.8711690439671, 45.720535915489599 ], [ -73.867386130590234, 45.720170694169745 ], [ -73.866894482887929, 45.719854041261613 ], [ -73.866141329156363, 45.720459760498287 ], [ -73.865376616940864, 45.721074757205244 ], [ -73.864431662302422, 45.720510337723439 ], [ -73.862788240961152, 45.721737321394677 ], [ -73.861789079921707, 45.721108850867381 ], [ -73.861016494984511, 45.721674315962588 ], [ -73.860083131188134, 45.722357435912286 ], [ -73.859419406588302, 45.722647220775023 ], [ -73.858247849008933, 45.723158710950273 ], [ -73.85810802962412, 45.723227546436235 ], [ -73.856238947195067, 45.724147687724823 ], [ -73.856198861665035, 45.724167420431584 ], [ -73.854802688360351, 45.724309837621298 ], [ -73.851924649243529, 45.7246033564847 ], [ -73.850524389115634, 45.72474613528054 ], [ -73.852326631311939, 45.725937268017489 ], [ -73.855548606598347, 45.728066528511917 ], [ -73.858786404811212, 45.730205989678666 ], [ -73.860763651555814, 45.731512381776376 ], [ -73.86085246299649, 45.731571058376353 ], [ -73.86091005971231, 45.731609111681756 ], [ -73.861913907282087, 45.732272326122164 ], [ -73.862876470206601, 45.732908241764029 ], [ -73.863021218013614, 45.733004106287964 ], [ -73.872811169708186, 45.73949865018151 ], [ -73.873875941074928, 45.740205816042511 ], [ -73.877359395653542, 45.742522510197979 ], [ -73.879823511545197, 45.744161105581654 ], [ -73.884346890362735, 45.747155367842417 ], [ -73.884725545537592, 45.747406497696815 ], [ -73.884931528482866, 45.747543103321419 ], [ -73.885415611050732, 45.747864161191139 ], [ -73.885613030811868, 45.747997718939033 ], [ -73.88576727754031, 45.748100485933243 ], [ -73.886200664769945, 45.748389226844822 ], [ -73.888680240751214, 45.750041156812699 ], [ -73.898443948717329, 45.756543772598974 ], [ -73.908376088192298, 45.763167345220467 ], [ -73.913454735953351, 45.76656381049451 ], [ -73.912200710059238, 45.767402791669298 ], [ -73.910541549129817, 45.768511184411402 ], [ -73.91045585198286, 45.768568431749159 ], [ -73.908878727052425, 45.769621950408549 ], [ -73.90723555664249, 45.770719511832176 ], [ -73.907159254834426, 45.770770476766231 ], [ -73.905497810988393, 45.771880191204282 ], [ -73.905065612061918, 45.772168832781645 ], [ -73.903872924074903, 45.772965689564586 ], [ -73.90237059494568, 45.773969355084041 ], [ -73.90064506371472, 45.775122061678594 ], [ -73.899014537399466, 45.776211253239524 ], [ -73.897328898602808, 45.77731867196875 ], [ -73.89578705144325, 45.778331583488509 ], [ -73.894880482807267, 45.778927099052787 ], [ -73.894039100449604, 45.779479804041529 ], [ -73.893106387735628, 45.780092478260727 ], [ -73.890629790011815, 45.781719180817255 ], [ -73.888951974056368, 45.782821130274804 ], [ -73.887854000771554, 45.783542218612205 ], [ -73.886823225622777, 45.784219149629301 ], [ -73.885674382526773, 45.784973573629593 ], [ -73.883125255825178, 45.786619068162828 ], [ -73.878043410550504, 45.790094057295448 ], [ -73.86841652990546, 45.796539493064962 ], [ -73.868220852582695, 45.796714206672618 ], [ -73.867653996760865, 45.797093250355452 ], [ -73.866692957274566, 45.797753039631814 ], [ -73.865080222517477, 45.798860188739702 ], [ -73.8634677335764, 45.79996710246278 ], [ -73.862951165731644, 45.800321693000548 ], [ -73.861881149026743, 45.801093758277908 ], [ -73.860226089524716, 45.802287896527666 ], [ -73.86868040090171, 45.808587873154131 ], [ -73.866540126798256, 45.809088615915577 ], [ -73.865198825316696, 45.809402404466489 ], [ -73.864112977731679, 45.809657348166475 ], [ -73.863860452955294, 45.809716636573519 ], [ -73.86277459180198, 45.809971567581428 ], [ -73.860352325132126, 45.810538129273461 ], [ -73.857927758145863, 45.811105165037247 ], [ -73.855503144254598, 45.811672150333322 ], [ -73.854516644565393, 45.811902820224724 ], [ -73.853011265300211, 45.812194483078635 ], [ -73.850050120883552, 45.812768130510321 ], [ -73.849204103261542, 45.812932009169522 ], [ -73.847935162558628, 45.81317779624586 ], [ -73.846666109086883, 45.81342358935489 ], [ -73.845397044373385, 45.813669368390485 ], [ -73.842858881223961, 45.814160884239918 ], [ -73.841589781497277, 45.814406620157101 ], [ -73.840320671823989, 45.814652342895315 ], [ -73.837782418763695, 45.81514374614563 ], [ -73.836513274091402, 45.815389426660808 ], [ -73.835244119469891, 45.815635093095828 ], [ -73.833974953613151, 45.81588074545418 ], [ -73.832705776521877, 45.816126383735451 ], [ -73.831436586910044, 45.816372007943038 ], [ -73.830590460686608, 45.81653574807553 ], [ -73.829321197084639, 45.81678135977679 ], [ -73.82889806344464, 45.816863235137866 ], [ -73.828474929848412, 45.816945109830279 ], [ -73.827628786152118, 45.817108828062018 ], [ -73.827085835031809, 45.817213878763546 ], [ -73.826782634896048, 45.817272540943705 ], [ -73.826592459015473, 45.817309334662049 ], [ -73.82509030712626, 45.817599949763796 ], [ -73.811451915741671, 45.808542207315554 ], [ -73.805327851161877, 45.804481793841383 ], [ -73.803794680991558, 45.80347708616133 ], [ -73.795453785612352, 45.797946240919607 ], [ -73.795340137582372, 45.797870869029261 ], [ -73.789521999441462, 45.79401183300763 ], [ -73.787795411239486, 45.792884060872638 ], [ -73.778508424595586, 45.786694788432513 ], [ -73.777204071401243, 45.78581727898667 ], [ -73.776507780718035, 45.78534882943692 ], [ -73.776398915704704, 45.785276126421365 ], [ -73.767525129494999, 45.779346770347153 ], [ -73.766265257646495, 45.778509470474965 ], [ -73.75191637539298, 45.768970566699892 ], [ -73.74826177721728, 45.766540237357312 ], [ -73.74771494496791, 45.76617656234091 ], [ -73.747589438764351, 45.766093106935422 ], [ -73.746124732887949, 45.7651191193778 ], [ -73.73994467563837, 45.761008974895837 ], [ -73.730149195483705, 45.75449240510703 ], [ -73.731220409914499, 45.754295955961325 ], [ -73.732745973948141, 45.754016164292715 ], [ -73.734030245223153, 45.753780607897056 ], [ -73.735314508209015, 45.753545037071859 ], [ -73.735399331109079, 45.753529477547254 ], [ -73.736855510317014, 45.753262351531625 ], [ -73.737920082253922, 45.753067049808649 ], [ -73.739039764616592, 45.752861624794285 ], [ -73.739211640813593, 45.752830090043403 ], [ -73.740497925187483, 45.752594082360488 ], [ -73.741963745832663, 45.752325112895846 ], [ -73.743054191561754, 45.752125008656449 ], [ -73.744339857733067, 45.751889065180158 ], [ -73.745129452085052, 45.751744151739146 ], [ -73.745625511727923, 45.75165310725194 ], [ -73.747313012127009, 45.751343372810844 ], [ -73.748222968151993, 45.751176341991396 ], [ -73.749496549439357, 45.750942550136159 ], [ -73.750758091541726, 45.750710952395785 ], [ -73.751083410380446, 45.75065122789934 ], [ -73.748297326088931, 45.741215536939137 ], [ -73.748266106575656, 45.741109785847826 ], [ -73.747536314390771, 45.738637630503277 ], [ -73.747451683163632, 45.738350928689172 ], [ -73.746099229755899, 45.733768876626975 ], [ -73.746072838063355, 45.733679453990447 ], [ -73.74572628187731, 45.732505207807492 ], [ -73.745697379895375, 45.732416289824812 ], [ -73.745788314360368, 45.732441021295898 ], [ -73.745936600763557, 45.732493525963463 ], [ -73.74608641115077, 45.732530998929249 ], [ -73.746374358762182, 45.732578252714646 ], [ -73.746897833805008, 45.732629930759174 ], [ -73.747209415687905, 45.732608575163042 ], [ -73.747463431848502, 45.73260361578668 ], [ -73.74761275818129, 45.732603202270546 ], [ -73.747716394909332, 45.732600185849826 ], [ -73.747785228212521, 45.732587800132023 ], [ -73.748019199947223, 45.732579733361078 ], [ -73.748295391053972, 45.732604330501509 ], [ -73.748533272873786, 45.73264151883788 ], [ -73.74888253595114, 45.732701231419064 ], [ -73.749169088654284, 45.732759525491183 ], [ -73.749256447289241, 45.732777870654765 ], [ -73.749449336063606, 45.732849636510281 ], [ -73.749525733238428, 45.732899106830189 ], [ -73.749592830405717, 45.732916286374412 ], [ -73.74970012160864, 45.732900843735791 ], [ -73.74989162362796, 45.732875318012439 ], [ -73.749995316515566, 45.732837295633352 ], [ -73.750083074009069, 45.732814516245746 ], [ -73.750228964869095, 45.732804118009241 ], [ -73.750451418591524, 45.732803540601367 ], [ -73.750677431375948, 45.732793056120272 ], [ -73.750949599360666, 45.73274710399938 ], [ -73.751068109989134, 45.732681241380718 ], [ -73.751136490095973, 45.732567884457957 ], [ -73.75123945460841, 45.732391368890077 ], [ -73.751284824653496, 45.732275452776719 ], [ -73.751288002857422, 45.732157019755199 ], [ -73.751257108236828, 45.732074027496232 ], [ -73.751168138659736, 45.731920611229995 ], [ -73.751098344843911, 45.731741955718704 ], [ -73.751082477148628, 45.731653890974172 ], [ -73.751128247854311, 45.731532844631893 ], [ -73.751249919167321, 45.731368886419084 ], [ -73.751441066496213, 45.731194786370835 ], [ -73.751624320485476, 45.731033211908674 ], [ -73.751815076049596, 45.73079602951227 ], [ -73.751929524855484, 45.730700028477102 ], [ -73.752266188601382, 45.730505358450898 ], [ -73.752404045341819, 45.730477337245901 ], [ -73.752545880259817, 45.730461995588399 ], [ -73.752753200398601, 45.730491683590948 ], [ -73.75299479353545, 45.730554141465753 ], [ -73.753248199678225, 45.730603974127867 ], [ -73.753405609435404, 45.730611184222091 ], [ -73.753604648670361, 45.730590584964261 ], [ -73.753800080077255, 45.730522208996092 ], [ -73.754010744785262, 45.730471256772852 ], [ -73.754245105488323, 45.730437770558368 ], [ -73.754371884603586, 45.730389965776503 ], [ -73.754730701429722, 45.730295884312653 ], [ -73.754956442389911, 45.730204761449187 ], [ -73.755170633957263, 45.730090986599237 ], [ -73.75531571666248, 45.72997475610758 ], [ -73.755442093343717, 45.729916520441449 ], [ -73.755721409136981, 45.729815197451529 ], [ -73.75605483753759, 45.729751458085836 ], [ -73.756483940183159, 45.729659876255013 ], [ -73.756801797968549, 45.729621366700371 ], [ -73.75693604509901, 45.729616025471138 ], [ -73.757193171152352, 45.729668360729953 ], [ -73.757431116601524, 45.729720828617914 ], [ -73.757599524368771, 45.729700291410708 ], [ -73.757740996195878, 45.729606743307762 ], [ -73.757797961813182, 45.729480809564159 ], [ -73.757858380379787, 45.729299254527234 ], [ -73.757938354989875, 45.729153111141756 ], [ -73.758068321677911, 45.729046990076746 ], [ -73.758240384515702, 45.728923225780989 ], [ -73.758427155049347, 45.728771711209248 ], [ -73.758599637071043, 45.728693210107885 ], [ -73.758748639551669, 45.728624930728785 ], [ -73.758893805781597, 45.728506265758206 ], [ -73.758954580693953, 45.728402820143188 ], [ -73.759074165383538, 45.72827530396119 ], [ -73.759136046456447, 45.728182024545028 ], [ -73.759113835879333, 45.728101488291806 ], [ -73.758804695886269, 45.72702512564274 ], [ -73.758711210015136, 45.726699618414315 ], [ -73.758614684896912, 45.726363524747796 ], [ -73.758585018900376, 45.726260230958218 ], [ -73.7584460353022, 45.725776291090824 ], [ -73.758113229867732, 45.724617429975474 ], [ -73.756185601044891, 45.717904264925934 ], [ -73.756956001085314, 45.717320003168552 ], [ -73.758056776694048, 45.716485158542341 ], [ -73.758621885657831, 45.715861317375548 ], [ -73.759206888474807, 45.715215497168479 ], [ -73.759922613827825, 45.71495531823409 ], [ -73.760635227716392, 45.714696263514355 ], [ -73.761350513776193, 45.71443623000242 ], [ -73.762062967257407, 45.714177219385213 ], [ -73.76343535705098, 45.713678271578807 ], [ -73.76476682656093, 45.713194176957622 ], [ -73.765309563799107, 45.713153109317645 ], [ -73.766816552974419, 45.71303906519212 ], [ -73.767075628666305, 45.713019457126762 ], [ -73.767593048488351, 45.713064710865623 ], [ -73.768383021022331, 45.713133797506352 ], [ -73.768560042312004, 45.713149278036703 ], [ -73.76916142354294, 45.713207933090949 ], [ -73.76954093887241, 45.713244947011951 ], [ -73.769909350464872, 45.713280876735602 ], [ -73.770177794511895, 45.713307056245426 ], [ -73.770691009609223, 45.713369449921117 ], [ -73.770900365895045, 45.713386248469618 ], [ -73.771294458825409, 45.713417869029385 ], [ -73.771410451023641, 45.713427175554536 ], [ -73.771793371481181, 45.713473947989925 ], [ -73.771889547663534, 45.713485695534899 ], [ -73.772043301374268, 45.713504475780987 ], [ -73.772620291096345, 45.713518055292198 ], [ -73.773076994213341, 45.713539945761042 ], [ -73.773380876169512, 45.71358579936863 ], [ -73.773436368075267, 45.713594172602875 ], [ -73.773626617395891, 45.713622879961576 ], [ -73.77401471334278, 45.713635707920815 ], [ -73.774636216253853, 45.713668410498769 ], [ -73.775013980485312, 45.713688286235325 ], [ -73.775412405336667, 45.713692973750568 ], [ -73.775514101487431, 45.713694169998689 ], [ -73.775714148890785, 45.713696523613301 ], [ -73.775798105706926, 45.713697510937557 ], [ -73.776183803560187, 45.713702045928713 ], [ -73.776314084370341, 45.713703577456577 ], [ -73.776738996414394, 45.71370857145034 ], [ -73.776800913305451, 45.713709299024771 ], [ -73.777163909811122, 45.713713563860502 ], [ -73.777282948464887, 45.713714962163316 ], [ -73.777632146585717, 45.713818926697996 ], [ -73.778033115515242, 45.713938303006728 ], [ -73.77829076503518, 45.714009655111141 ], [ -73.778523708480137, 45.714059812600077 ], [ -73.778554149537385, 45.714066367141498 ], [ -73.778650102074337, 45.714095686515961 ], [ -73.778888746962537, 45.714168606997561 ], [ -73.779138617688631, 45.714244933227754 ], [ -73.779519787077419, 45.714333537795326 ], [ -73.779687399760547, 45.714379056594495 ], [ -73.77970456738619, 45.714435837557865 ], [ -73.779747653335704, 45.714449207206513 ], [ -73.780228297021679, 45.714598350271821 ], [ -73.780331930014583, 45.714630507080749 ], [ -73.780635165148269, 45.714668714295428 ], [ -73.781251245441823, 45.714746336940166 ], [ -73.7817305306652, 45.714809466384295 ], [ -73.78193892918209, 45.714836915694185 ], [ -73.782592292789317, 45.714922969075388 ], [ -73.78301191812848, 45.714978230585253 ], [ -73.783035644627532, 45.714981899082623 ], [ -73.783433270664787, 45.715043377661182 ], [ -73.784229746634566, 45.715166519486672 ], [ -73.784661465544261, 45.715233264276293 ], [ -73.785049245438884, 45.715330297530798 ], [ -73.785751464855807, 45.715506008046468 ], [ -73.786345792483175, 45.715654717453113 ], [ -73.786533357943185, 45.715608497635003 ], [ -73.787811291835737, 45.715293579396182 ], [ -73.788189381175656, 45.715309939594512 ], [ -73.788982474767693, 45.715344253227578 ], [ -73.789378176532566, 45.71536137141451 ], [ -73.789791853742386, 45.715464693311937 ], [ -73.790211021764478, 45.715569384704686 ], [ -73.790630192502832, 45.715674074829828 ], [ -73.790975946137991, 45.715760427198262 ], [ -73.79255154766858, 45.716378392455589 ], [ -73.794227684987732, 45.71743116550649 ], [ -73.795828421690729, 45.716810659310269 ], [ -73.7958719714415, 45.716793777275754 ], [ -73.796144788135877, 45.716688019405751 ], [ -73.797334012065008, 45.716227002390717 ], [ -73.797598475911869, 45.716438920129448 ], [ -73.799109213930194, 45.717649445830311 ], [ -73.799351088567462, 45.717755994937676 ], [ -73.799585583963193, 45.718529502415933 ], [ -73.799803058233024, 45.71862652355339 ], [ -73.800683134061742, 45.719019141424205 ], [ -73.801423443798086, 45.719349397547212 ], [ -73.801494893111609, 45.719345473826209 ], [ -73.803005210827621, 45.719262522439038 ], [ -73.804406231078019, 45.719185555952301 ], [ -73.804517191144569, 45.719184951077686 ], [ -73.805000952388468, 45.719182312711574 ], [ -73.805484860014005, 45.719179671500775 ], [ -73.805824049789365, 45.719177818948545 ], [ -73.805917208634327, 45.719177309969041 ], [ -73.806241179122722, 45.719175539597231 ], [ -73.806658822231313, 45.719173255976244 ], [ -73.806731865133187, 45.719172856435478 ], [ -73.806979195751978, 45.719215805940536 ], [ -73.807137279009012, 45.71924325713146 ], [ -73.807442675644012, 45.719240940254373 ], [ -73.807511388919238, 45.719240418820128 ], [ -73.807971464547634, 45.719236926443408 ], [ -73.808138143031229, 45.719250040743191 ], [ -73.808912154219854, 45.719310936838582 ], [ -73.809332779589042, 45.719344027697474 ], [ -73.809543093138004, 45.719360572606789 ], [ -73.809720797590472, 45.719374551914697 ], [ -73.809754992141123, 45.719382487363298 ], [ -73.81019275767764, 45.719484077499331 ], [ -73.810667032138127, 45.71959413776613 ], [ -73.810988358310041, 45.719668703444796 ], [ -73.811077344157653, 45.71968113683976 ], [ -73.811478263110573, 45.719737153616734 ], [ -73.811879185300214, 45.719793169328462 ], [ -73.812180075040359, 45.719835207791157 ], [ -73.812270872384985, 45.719818734492804 ], [ -73.812994030840045, 45.719687529477298 ], [ -73.813717165482842, 45.719556323590595 ], [ -73.814510161613626, 45.719627306603016 ], [ -73.815303235552832, 45.719698290905455 ], [ -73.816091286044511, 45.719768819937578 ], [ -73.816866136703695, 45.719838162134231 ], [ -73.817627157838373, 45.719813861480361 ], [ -73.818408921121929, 45.719826279447183 ], [ -73.819966471608055, 45.71985945999878 ], [ -73.820765852770819, 45.719884319140874 ], [ -73.821478998614495, 45.719906491494974 ], [ -73.821507022865077, 45.719929604855452 ], [ -73.82171568968343, 45.7201017046795 ], [ -73.821751384303042, 45.720131143993044 ], [ -73.822523238351295, 45.720296052344466 ], [ -73.823357578892981, 45.720434649990153 ], [ -73.824153701412158, 45.72051930389847 ], [ -73.824792945224203, 45.720587272258214 ], [ -73.824870177485707, 45.720595483814492 ], [ -73.825037123365149, 45.720613233717152 ], [ -73.825292120980677, 45.720642776654728 ], [ -73.826383578945567, 45.720749970774818 ], [ -73.82677536335477, 45.720788446005777 ], [ -73.827368461899965, 45.720846688654881 ], [ -73.827961561789323, 45.72090492822975 ], [ -73.828018315396491, 45.720910500999707 ], [ -73.828541417989598, 45.720929810928297 ], [ -73.829112278072998, 45.720950881045972 ], [ -73.82951483076495, 45.720965737305768 ], [ -73.829608853339522, 45.720969207013852 ], [ -73.831039312462494, 45.72092064558904 ], [ -73.831189353000141, 45.720915550948526 ], [ -73.832320796147798, 45.721350171028696 ], [ -73.832723678501125, 45.721380333143564 ], [ -73.833511758782294, 45.721439329206213 ], [ -73.833904425005699, 45.721468722312402 ], [ -73.834333606144739, 45.72160491718698 ], [ -73.835188993190556, 45.721876355996187 ], [ -73.835795659911938, 45.722068863231897 ], [ -73.836749458006111, 45.721944703644354 ], [ -73.837068193158757, 45.721903210759237 ], [ -73.837513084149805, 45.721926445088265 ], [ -73.838608619111596, 45.721983651692668 ], [ -73.839265133126077, 45.72195757121343 ], [ -73.841027903581846, 45.721544934696645 ], [ -73.84294029202303, 45.721329123042388 ], [ -73.843304723269412, 45.721319435397312 ], [ -73.843901187118661, 45.721332218475453 ], [ -73.844771773734337, 45.720967322843279 ], [ -73.84014849457111, 45.717929772925139 ], [ -73.835221342058304, 45.714692003649141 ], [ -73.83424981273788, 45.714053515030962 ], [ -73.832306823116724, 45.712776514349265 ], [ -73.831335360158334, 45.712138000548961 ], [ -73.830687827648717, 45.711712383897506 ], [ -73.830363921458428, 45.711499479555258 ], [ -73.82959258144075, 45.710992465596675 ], [ -73.829392503766471, 45.710860949146607 ], [ -73.828771118499859, 45.710452489636225 ], [ -73.828312521184841, 45.710151031134174 ], [ -73.828063170191157, 45.709981306177895 ], [ -73.827842181902682, 45.70983088390976 ], [ -73.827616426265038, 45.709677215766746 ], [ -73.827441619657506, 45.709558227257858 ], [ -73.825480668407224, 45.708223380782691 ], [ -73.825133043779047, 45.707986737710016 ], [ -73.824990442874793, 45.707889662282099 ], [ -73.824258142490109, 45.707391141396293 ], [ -73.823525855187654, 45.706892615782657 ], [ -73.822793578826762, 45.706394083971809 ], [ -73.822061314890021, 45.705895546994533 ], [ -73.821760755566302, 45.705690917467891 ], [ -73.821571666255537, 45.7055635091562 ], [ -73.820841449614704, 45.705071481062788 ], [ -73.820600069871361, 45.704908833760555 ], [ -73.819622512562319, 45.704250117887327 ], [ -73.819133743825716, 45.703920757645207 ], [ -73.818840492006331, 45.703723144985418 ], [ -73.818789533777291, 45.703688805702917 ], [ -73.818651531160683, 45.70359580939953 ], [ -73.817584551796244, 45.70287678413635 ], [ -73.815981064742616, 45.701796158750319 ], [ -73.815807896971606, 45.701679453302368 ], [ -73.815624563140005, 45.701555895658799 ], [ -73.815300190488415, 45.70133728308442 ], [ -73.815209118946314, 45.701275904498139 ], [ -73.814900489927467, 45.70106789927997 ], [ -73.814477305786497, 45.700782683527358 ], [ -73.814218314759543, 45.700608128568021 ], [ -73.814205174475347, 45.700599272224018 ], [ -73.813659177023894, 45.700231272764803 ], [ -73.813475824300681, 45.700107692798731 ], [ -73.813399429287841, 45.70005620187807 ], [ -73.813114401877101, 45.699866783789524 ], [ -73.812862556144239, 45.699700052905406 ], [ -73.81265654805884, 45.699563667200039 ], [ -73.812568213988257, 45.699508130441799 ], [ -73.81201985620558, 45.699148037088356 ], [ -73.81175188240492, 45.698972062581674 ], [ -73.81160909802712, 45.698878297545669 ], [ -73.81134209083433, 45.698702955600758 ], [ -73.81113326178793, 45.698570907445763 ], [ -73.810915330800071, 45.6984331029755 ], [ -73.810900154812416, 45.698423506689359 ], [ -73.810887658731062, 45.698432924837356 ], [ -73.808939336759579, 45.697210532697994 ], [ -73.808826217958625, 45.697139980982229 ], [ -73.808654995823872, 45.697028059949787 ], [ -73.805321615166335, 45.694849021940904 ], [ -73.804811112674173, 45.694516853201115 ], [ -73.804360869114547, 45.694223887568086 ], [ -73.804337919918893, 45.694208955117887 ], [ -73.804034085205387, 45.694006165169405 ], [ -73.800999198825451, 45.692005104465721 ], [ -73.800251600906435, 45.691508323048168 ], [ -73.799856457950526, 45.691241026539963 ], [ -73.799670534185992, 45.691115256128867 ], [ -73.799494228047251, 45.69099599100285 ], [ -73.799371888378658, 45.690913231900758 ], [ -73.798774945969441, 45.690509412320473 ], [ -73.798297366535252, 45.690186334121464 ], [ -73.79801358950418, 45.689994358215174 ], [ -73.797067610388083, 45.689354386110274 ], [ -73.796828236452697, 45.689192441613727 ], [ -73.796681680901386, 45.689093291176626 ], [ -73.796166834997663, 45.68874497397902 ], [ -73.795871141068844, 45.688544920276492 ], [ -73.79560092427468, 45.688362101788151 ], [ -73.795057261953772, 45.687994273869847 ], [ -73.794873471561814, 45.687869924304849 ], [ -73.794486382182669, 45.68760802322101 ], [ -73.794010600502318, 45.687286109164305 ], [ -73.793898218469792, 45.687210070683321 ], [ -73.793507684091054, 45.686945829228669 ], [ -73.793434767347961, 45.686897281695039 ], [ -73.792872660243276, 45.686523028195815 ], [ -73.792223347239442, 45.686090703224792 ], [ -73.791939107926666, 45.685902207942263 ], [ -73.791785930442813, 45.685798748081744 ], [ -73.791257671826472, 45.685441944695299 ], [ -73.790710322473103, 45.685078762748482 ], [ -73.790164007880364, 45.6847164032053 ], [ -73.790016857106451, 45.684618799787771 ], [ -73.789834937290095, 45.684498133807793 ], [ -73.789616187542777, 45.684353038257925 ], [ -73.789450687395018, 45.68424326278334 ], [ -73.789078080932271, 45.683996109298945 ], [ -73.78901401682802, 45.683956739823863 ], [ -73.788782312732806, 45.683814348783592 ], [ -73.788083093570719, 45.683350507629157 ], [ -73.785363666238098, 45.681546347872505 ], [ -73.784213433443242, 45.680783190000191 ], [ -73.783452183893033, 45.680274393818543 ], [ -73.783303967182775, 45.680384408438485 ], [ -73.783147164835327, 45.680500795209298 ], [ -73.78305718195169, 45.680567584812138 ], [ -73.782944806005091, 45.680650995302528 ], [ -73.782941100161025, 45.680653745938258 ], [ -73.782837978268759, 45.680730287330931 ], [ -73.782795525945119, 45.680761797130536 ], [ -73.782631911295994, 45.680883237960451 ], [ -73.782558835022115, 45.68093747762213 ], [ -73.782434983336287, 45.681029404140851 ], [ -73.782425827260937, 45.68103617882619 ], [ -73.78216766714884, 45.681227193282204 ], [ -73.781759265564531, 45.681529368600465 ], [ -73.780878650293516, 45.680889062736689 ], [ -73.780842583494334, 45.680856328404396 ], [ -73.780706056034447, 45.680732415201348 ], [ -73.780562852476677, 45.680787150603535 ], [ -73.780355976349796, 45.680866222500356 ], [ -73.780089617835372, 45.680967772987792 ], [ -73.779900617725417, 45.681039829975248 ], [ -73.779711618408385, 45.681111885747328 ], [ -73.779522617325853, 45.681183942109897 ], [ -73.779333614473359, 45.681255998163159 ], [ -73.779144613697511, 45.681328052997891 ], [ -73.77895561115615, 45.681400108423126 ], [ -73.778714588284146, 45.681491906709617 ], [ -73.778627905060944, 45.681524921515511 ], [ -73.778559521196144, 45.681604244016945 ], [ -73.778514174714417, 45.681656843940196 ], [ -73.778430999641813, 45.681753323073998 ], [ -73.778365720508432, 45.681829043470756 ], [ -73.778361633848604, 45.681833783782217 ], [ -73.778235964895572, 45.681979552550686 ], [ -73.778110295290929, 45.682125321169714 ], [ -73.778021671458973, 45.68222811855216 ], [ -73.777694950515269, 45.682607087909986 ], [ -73.77728699743065, 45.683080281789536 ], [ -73.777385474018104, 45.683874305432994 ], [ -73.777596298902679, 45.685572681124192 ], [ -73.775880331565645, 45.684347497725199 ], [ -73.775713957671798, 45.684228704203321 ], [ -73.775609457243334, 45.684154088901693 ], [ -73.774631053119592, 45.683455475365243 ], [ -73.772926338791549, 45.682236815640373 ], [ -73.77234125880311, 45.681818538158474 ], [ -73.772152607834158, 45.681961009999924 ], [ -73.771565658572513, 45.682404263620818 ], [ -73.771125066419671, 45.682736984383133 ], [ -73.770565641810748, 45.683159434903516 ], [ -73.770051197696006, 45.683547910553649 ], [ -73.769293718299764, 45.684120135118903 ], [ -73.76928688201825, 45.684125310346531 ], [ -73.768696460174269, 45.684572268460698 ], [ -73.768260787288241, 45.684902072790834 ], [ -73.767999381094398, 45.685099954584196 ], [ -73.767397028031851, 45.685555922056473 ], [ -73.767067661762468, 45.685805240299089 ], [ -73.766561029185269, 45.685446234100631 ], [ -73.766274468572263, 45.685243169962469 ], [ -73.765186078592947, 45.684471892506849 ], [ -73.764231959408562, 45.683795738358029 ], [ -73.762851667194425, 45.682818366370078 ], [ -73.762521250536821, 45.682583855109314 ], [ -73.761805701143231, 45.682075987707158 ], [ -73.761565477711358, 45.681905484115838 ], [ -73.760473904783311, 45.681130697940503 ], [ -73.760472780272963, 45.681129899758865 ], [ -73.760233452885842, 45.680960023569384 ], [ -73.759113512791856, 45.680165062143594 ], [ -73.758906321463002, 45.680308040998462 ], [ -73.75866368844973, 45.680475177839661 ], [ -73.758580992164255, 45.680532142512135 ], [ -73.758069244940017, 45.680884650436184 ], [ -73.757790168689169, 45.681076884413699 ], [ -73.757511090526748, 45.68126911770716 ], [ -73.757063408753638, 45.681577483804702 ], [ -73.756830029425188, 45.681315343686656 ], [ -73.75672387298134, 45.681196105738799 ], [ -73.75634192081074, 45.680767431975994 ], [ -73.756328284258259, 45.680752127203206 ], [ -73.756227562358205, 45.680639580509045 ], [ -73.756096586268526, 45.680493226960621 ], [ -73.756089111864128, 45.680484874984188 ], [ -73.75596560877355, 45.680346871128954 ], [ -73.755883849797883, 45.680255512209293 ], [ -73.755835165547438, 45.680200285744895 ], [ -73.755705607152734, 45.68005331661616 ], [ -73.755615471524962, 45.67995106753591 ], [ -73.755575787833521, 45.679906462376984 ], [ -73.755408380142782, 45.679718292279752 ], [ -73.75540481187285, 45.679714281411897 ], [ -73.75527630684563, 45.679569836569407 ], [ -73.755242709300774, 45.679532071432853 ], [ -73.755164303987499, 45.679443940786634 ], [ -73.755074906768868, 45.679343454391763 ], [ -73.755052963754125, 45.67931878922397 ], [ -73.754941624349811, 45.679193637134325 ], [ -73.754919633687294, 45.679168918246638 ], [ -73.754830284079404, 45.679068484359533 ], [ -73.754764357709476, 45.67899437919224 ], [ -73.754718945635062, 45.678943332954162 ], [ -73.754609086565907, 45.678819843510034 ], [ -73.754607542475469, 45.678818118576721 ], [ -73.75446404846744, 45.678657817818177 ], [ -73.754460624456271, 45.678653992761589 ], [ -73.754355804234052, 45.678537702326913 ], [ -73.754332322896303, 45.678511651405998 ], [ -73.754247970754719, 45.678417404899612 ], [ -73.754207562792601, 45.678372257016953 ], [ -73.754140255296903, 45.678297054052365 ], [ -73.754082803309373, 45.678232862486915 ], [ -73.754032540353109, 45.678176703135918 ], [ -73.75395804444662, 45.67809346781592 ], [ -73.753924826827756, 45.678056353443985 ], [ -73.753833286208405, 45.677954073903763 ], [ -73.753816999796015, 45.677936053057103 ], [ -73.753710913638017, 45.677818668835442 ], [ -73.753616572660974, 45.677715233512274 ], [ -73.753543399216341, 45.677635005933503 ], [ -73.753452979242169, 45.67753538795715 ], [ -73.75342208595481, 45.677501351938119 ], [ -73.753296207827773, 45.677362666264635 ], [ -73.753170930552201, 45.677224614126565 ], [ -73.753170345678129, 45.677223969615959 ], [ -73.753043512999142, 45.677083369066303 ], [ -73.753034340513963, 45.677073200867888 ], [ -73.752916962704617, 45.676943080712199 ], [ -73.752898336081316, 45.67692243195237 ], [ -73.752790410261696, 45.676802790176701 ], [ -73.75277279338907, 45.676783260844957 ], [ -73.752663859685853, 45.676662499817432 ], [ -73.752647252603722, 45.676644089592017 ], [ -73.752537310002594, 45.676522209861496 ], [ -73.752521711154031, 45.67650491729944 ], [ -73.752410759389008, 45.676381917424514 ], [ -73.752389893041126, 45.676358785159493 ], [ -73.752264403023645, 45.67621966781136 ], [ -73.752255984490844, 45.676210335054819 ], [ -73.752119984244729, 45.676059565181028 ], [ -73.751981892336559, 45.675906475530418 ], [ -73.75184170751298, 45.675751065198149 ], [ -73.75169930854814, 45.675593199471017 ], [ -73.75157056314859, 45.675457087744853 ], [ -73.751550124758509, 45.675435479874366 ], [ -73.751545705674403, 45.675430468262391 ], [ -73.751478366823292, 45.675352761480262 ], [ -73.751437262094129, 45.67530532789322 ], [ -73.751407690845582, 45.675271166670711 ], [ -73.751371535442189, 45.675229386788423 ], [ -73.751324078815372, 45.67517454753159 ], [ -73.751263412637087, 45.675104416140208 ], [ -73.751256564423471, 45.675096812351313 ], [ -73.75111534400213, 45.674940010477393 ], [ -73.751110843129098, 45.674935012993103 ], [ -73.750947934801971, 45.674764031574661 ], [ -73.750812136677055, 45.674613258762605 ], [ -73.750675181356911, 45.674463025514484 ], [ -73.750485510243095, 45.674255027917454 ], [ -73.750295840536509, 45.674047029995002 ], [ -73.750196065864131, 45.673937613850889 ], [ -73.750154867744314, 45.673892434502839 ], [ -73.75001386089393, 45.673737798415395 ], [ -73.749916217713036, 45.673630717967505 ], [ -73.749825377343754, 45.673544051986433 ], [ -73.749656115673886, 45.673352834912123 ], [ -73.749650972398811, 45.673347024340039 ], [ -73.749641172199574, 45.673335952819997 ], [ -73.74953803102612, 45.673219431484917 ], [ -73.749493488347824, 45.673169110260112 ], [ -73.749488209653734, 45.673163146107662 ], [ -73.749434891171447, 45.6731029110503 ], [ -73.749334446987902, 45.672989436616184 ], [ -73.749331744722596, 45.672986392955124 ], [ -73.749226104786615, 45.672864511260812 ], [ -73.749194528279816, 45.672828731330611 ], [ -73.749024388297968, 45.672635941559669 ], [ -73.748933646226533, 45.672532832268459 ], [ -73.748921680020842, 45.672519235147931 ], [ -73.748820194303121, 45.672402001385919 ], [ -73.748802032132303, 45.672381079806833 ], [ -73.748718501482259, 45.672284857963881 ], [ -73.748668821516887, 45.672228799565936 ], [ -73.748616568355203, 45.672167816561192 ], [ -73.748532620820768, 45.672069843723285 ], [ -73.748464041877511, 45.671992094949843 ], [ -73.748409725195074, 45.671930515276308 ], [ -73.748299082671863, 45.671805635133254 ], [ -73.748186703340352, 45.67167879401196 ], [ -73.748154521896467, 45.671642578654122 ], [ -73.748012027043217, 45.671482221496454 ], [ -73.747999657870864, 45.671467865526537 ], [ -73.747898520484711, 45.671350482679429 ], [ -73.747849082549465, 45.67129310343185 ], [ -73.747797175902988, 45.671233189253655 ], [ -73.747695633067124, 45.671115981153115 ], [ -73.747685034313065, 45.671103747270543 ], [ -73.747592705479306, 45.670999370559819 ], [ -73.747518591064164, 45.670915584714173 ], [ -73.747488664555931, 45.670883239770923 ], [ -73.747487369392502, 45.670881839942403 ], [ -73.747419967600564, 45.670808992804901 ], [ -73.747382605825351, 45.670768017030099 ], [ -73.747299339145485, 45.670676695689487 ], [ -73.747275469139609, 45.670653183172895 ], [ -73.74716179128184, 45.670541207478045 ], [ -73.747054052290736, 45.670435081203401 ], [ -73.74693964621909, 45.670315008714304 ], [ -73.746890584176001, 45.670263516495083 ], [ -73.746666871075533, 45.670028721038662 ], [ -73.746501561176757, 45.669856609050342 ], [ -73.745396952079545, 45.668695998108987 ], [ -73.746546875951651, 45.668276056896872 ], [ -73.747437444587234, 45.667812030852403 ], [ -73.748063123919906, 45.667535933319314 ], [ -73.748746034012726, 45.66737201578394 ], [ -73.749333215574353, 45.667058559074633 ], [ -73.749616517586659, 45.666683400321304 ], [ -73.749747917835521, 45.666333410364935 ], [ -73.749746140679463, 45.665933766755366 ], [ -73.749630243073426, 45.66548451782824 ], [ -73.749533355502763, 45.665072663253973 ], [ -73.749531635124569, 45.66468543811115 ], [ -73.749587080399962, 45.664323195406766 ], [ -73.74968025282601, 45.663923344183814 ], [ -73.749811701926603, 45.663585862552388 ], [ -73.75007587983059, 45.663223162930549 ], [ -73.750511178400302, 45.662947468334529 ], [ -73.751193355893207, 45.662633793474626 ], [ -73.75183779963929, 45.662357543761232 ], [ -73.752482175018557, 45.662043944494862 ], [ -73.752870215300945, 45.661855816046014 ], [ -73.753457352368088, 45.661479974509248 ], [ -73.753967926149357, 45.661004230709082 ], [ -73.75455324267412, 45.660253577016029 ], [ -73.754929116032542, 45.659441114322156 ], [ -73.755494962638593, 45.658628135590114 ], [ -73.755986426203435, 45.658102480504233 ], [ -73.757064933531268, 45.657313271329748 ], [ -73.758920077787096, 45.656047774001074 ], [ -73.760187263104143, 45.654995874668366 ], [ -73.76084860650775, 45.654307558222285 ], [ -73.761320488600106, 45.653731979693255 ], [ -73.762040185458446, 45.653330772809582 ], [ -73.762949555690781, 45.652891598863278 ], [ -73.763782175380442, 45.652315179161107 ], [ -73.764663129339084, 45.651646220960764 ], [ -73.764982796928905, 45.651300815719495 ], [ -73.765436010382103, 45.650775208004617 ], [ -73.765888873653807, 45.65019974441941 ], [ -73.766493703155191, 45.64964885201536 ], [ -73.767137045950307, 45.64921035467993 ], [ -73.767699997993688, 45.648959042772823 ], [ -73.768044987362671, 45.648804529739053 ], [ -73.76858710699176, 45.648757271252386 ], [ -73.769212829196562, 45.648556019095643 ], [ -73.769648431103676, 45.648342613701544 ], [ -73.770045468528266, 45.648054425525721 ], [ -73.770328762484453, 45.647704141586019 ], [ -73.770667509261514, 45.647091492566901 ], [ -73.771119732276162, 45.646378593518762 ], [ -73.771648946073014, 45.645877797734947 ], [ -73.772273853752097, 45.645626495783269 ], [ -73.772898831209503, 45.645325335353689 ], [ -73.773485645274363, 45.644924283112012 ], [ -73.774052644736074, 45.644410876883512 ], [ -73.775140220037059, 45.643633982090073 ], [ -73.776179117810756, 45.642582452600571 ], [ -73.776952062857973, 45.641506631049708 ], [ -73.777346682636946, 45.640681447719359 ], [ -73.777447803245494, 45.640031828283028 ], [ -73.777614133554636, 45.639132325610241 ], [ -73.777667090894255, 45.63830797056864 ], [ -73.777833765348419, 45.637458411408694 ], [ -73.778113753864147, 45.636546032405825 ], [ -73.77850840219152, 45.635758370480737 ], [ -73.778998725929227, 45.635107799617728 ], [ -73.779660332248682, 45.634544188606583 ], [ -73.78062588576465, 45.63406729868624 ], [ -73.781668070594037, 45.633727537836464 ], [ -73.782786598878374, 45.633487468462853 ], [ -73.783847485136008, 45.633147641400278 ], [ -73.784737399667279, 45.63274577699589 ], [ -73.78566511215827, 45.632269028626347 ], [ -73.786326829967606, 45.631767742185225 ], [ -73.786988153858744, 45.631191580355463 ], [ -73.78753606200037, 45.630678243892355 ], [ -73.787969921691428, 45.630165192293617 ], [ -73.788280874376071, 45.629739740493065 ], [ -73.788600981418128, 45.629264409665105 ], [ -73.78873132462526, 45.628752031404296 ], [ -73.788690636764031, 45.628265192773299 ], [ -73.788458720959525, 45.627453969429936 ], [ -73.788066390239734, 45.626755638930682 ], [ -73.787739861868914, 45.625994687480969 ], [ -73.787564836332763, 45.625195917449759 ], [ -73.787712452889835, 45.624358808645958 ], [ -73.787852868536945, 45.623996330753243 ], [ -73.788284837308424, 45.623083631591271 ], [ -73.788887126150769, 45.622157901320193 ], [ -73.789813387795917, 45.62148125170777 ], [ -73.790854227306184, 45.620916611802912 ], [ -73.791629638092743, 45.620427602875864 ], [ -73.792234131697043, 45.619901589661069 ], [ -73.792667109747455, 45.619263523755038 ], [ -73.793081146480972, 45.618625594721756 ], [ -73.793400466022149, 45.617937962300225 ], [ -73.793682037021426, 45.61737515376219 ], [ -73.794209431483068, 45.616637038706678 ], [ -73.794755194588376, 45.615773965900409 ], [ -73.795548604414407, 45.615147556848115 ], [ -73.7974595125349, 45.614093569200143 ], [ -73.799843769925985, 45.61295083645507 ], [ -73.801186916945923, 45.612247980972491 ], [ -73.802019599043376, 45.611808784910529 ], [ -73.802511312285617, 45.611545159264537 ], [ -73.802813437014024, 45.611306961776428 ], [ -73.803077672783004, 45.611044116395277 ], [ -73.803389041667373, 45.610756127643342 ], [ -73.803729228925988, 45.610517916600934 ], [ -73.80408926710021, 45.610392050853108 ], [ -73.804695817844177, 45.610365417108255 ], [ -73.805246681484064, 45.610463926891043 ], [ -73.805892502084461, 45.610599526190789 ], [ -73.806784905455487, 45.61070953232398 ], [ -73.807666604487608, 45.610853307054747 ], [ -73.808509293504883, 45.610979272061741 ], [ -73.809176714608171, 45.611040281646474 ], [ -73.809688728034033, 45.611013787218923 ], [ -73.810409012004087, 45.610899523200352 ], [ -73.810938922243835, 45.610648176239657 ], [ -73.811487201228672, 45.610334592725017 ], [ -73.812111164077763, 45.609920729458523 ], [ -73.813000334190207, 45.609506226421693 ], [ -73.814098725898219, 45.609140996576386 ], [ -73.814989302999578, 45.608963781303082 ], [ -73.815746740432189, 45.608749400752608 ], [ -73.816579747745465, 45.608397388986546 ], [ -73.817146408264023, 45.607958639255003 ], [ -73.817581690614318, 45.607757649195925 ], [ -73.818282564675613, 45.607605863020829 ], [ -73.819135460086642, 45.607466156760168 ], [ -73.819780605951337, 45.607501789087223 ], [ -73.820274826255414, 45.607662749009883 ], [ -73.82092136468421, 45.607960605814064 ], [ -73.821530159812568, 45.60825874516285 ], [ -73.822081319922674, 45.608444464581375 ], [ -73.822613088194501, 45.608530345702071 ], [ -73.823334169949177, 45.608528217093912 ], [ -73.823883115521056, 45.608364407676596 ], [ -73.824393941958519, 45.608100723469178 ], [ -73.824979721508114, 45.607724334565809 ], [ -73.825357361973687, 45.607398660802041 ], [ -73.825563220821365, 45.606973405041636 ], [ -73.825656149979864, 45.606586087254612 ], [ -73.825919321383793, 45.606198193807366 ], [ -73.826030494934798, 45.605748279592198 ], [ -73.826122995417862, 45.605360872573677 ], [ -73.826063246565596, 45.604848992034711 ], [ -73.825775271659168, 45.60427530843549 ], [ -73.825526852216782, 45.603976435146855 ], [ -73.825506041964928, 45.603614278958972 ], [ -73.825579827353238, 45.603226925559639 ], [ -73.825671965545794, 45.602777065707826 ], [ -73.825574737623228, 45.602365272020542 ], [ -73.825552748983938, 45.601890719771141 ], [ -73.825550683514734, 45.601478744761479 ], [ -73.825661561435979, 45.60097879611827 ], [ -73.825809494773893, 45.600341504642557 ], [ -73.825806203062228, 45.599754499579859 ], [ -73.825774910014786, 45.599280063683111 ], [ -73.825829657013003, 45.598892764117736 ], [ -73.82594128449675, 45.598505302224375 ], [ -73.826262021180298, 45.598242151396974 ], [ -73.827038150599435, 45.597965188058716 ], [ -73.827852815611081, 45.597825345915076 ], [ -73.828799280962343, 45.597498026310781 ], [ -73.829593077193621, 45.5970461411816 ], [ -73.830461744382035, 45.596419270369339 ], [ -73.831272833720959, 45.595605107455796 ], [ -73.831874776499447, 45.594754199950494 ], [ -73.832399666881287, 45.593766096223355 ], [ -73.832659908278245, 45.59282861622048 ], [ -73.832672159623201, 45.591717184186585 ], [ -73.832467675654073, 45.590781236651424 ], [ -73.832329414960839, 45.589870023651876 ], [ -73.83205872385264, 45.589034068418336 ], [ -73.831997204020212, 45.588209923569501 ], [ -73.832012265396969, 45.587573008699898 ], [ -73.832123493000594, 45.587110758058799 ], [ -73.832556242963392, 45.586535082117962 ], [ -73.833142292762787, 45.586233522216482 ], [ -73.834106003150751, 45.585643781827159 ], [ -73.835220983916784, 45.585041080602586 ], [ -73.836032437810871, 45.584326861993752 ], [ -73.83637041320911, 45.583838832041913 ], [ -73.83661375784969, 45.583276206792867 ], [ -73.836762448529953, 45.58277622433102 ], [ -73.836759971965591, 45.582326632789353 ], [ -73.836851807590747, 45.581864344286551 ], [ -73.836963338650733, 45.581514307318926 ], [ -73.837227292546046, 45.58120125695136 ], [ -73.837661050022845, 45.580862776451212 ], [ -73.838283427729465, 45.58032395410055 ], [ -73.839133108301496, 45.579709490565868 ], [ -73.839804437023446, 45.579370386304703 ], [ -73.840542130491727, 45.57911837232416 ], [ -73.841906107928992, 45.578877079690884 ], [ -73.842752152343905, 45.57871732865955 ], [ -73.843167915459162, 45.579753686087635 ], [ -73.843216950514602, 45.580064820427545 ], [ -73.843250786080517, 45.580448623780946 ], [ -73.84348979433976, 45.580852508475502 ], [ -73.843712657262856, 45.58122548404706 ], [ -73.843683079513156, 45.581557462725861 ], [ -73.843542734684135, 45.581786194007741 ], [ -73.84318158969414, 45.582015588633041 ], [ -73.842631205355232, 45.58215213839533 ], [ -73.842344291021348, 45.582196194628722 ], [ -73.843010312100347, 45.582653201208082 ], [ -73.842952009001337, 45.582680501652966 ], [ -73.842899807887534, 45.582698492099993 ], [ -73.842843098714681, 45.582712299242104 ], [ -73.842749039299704, 45.582728317730606 ], [ -73.842642958878812, 45.582733881071825 ], [ -73.842544299484942, 45.58273102934136 ], [ -73.842502420835231, 45.582725909795499 ], [ -73.842472325123708, 45.582719713806483 ], [ -73.842427633568605, 45.582702772591524 ], [ -73.842322639521242, 45.582662315935373 ], [ -73.842231936663694, 45.582623152618275 ], [ -73.842164709567683, 45.58258745345131 ], [ -73.842099986063175, 45.58255927293154 ], [ -73.842016515066916, 45.582520574593985 ], [ -73.841918203944218, 45.582498398314435 ], [ -73.841862871077154, 45.582489411737356 ], [ -73.84177277508158, 45.582501168560903 ], [ -73.841677201174235, 45.582526083725782 ], [ -73.841553653091793, 45.582565402359791 ], [ -73.841466321362134, 45.582594125983512 ], [ -73.841410459952471, 45.58261824014118 ], [ -73.841330725425777, 45.582663174801731 ], [ -73.841283380391616, 45.582709478471209 ], [ -73.841275979373449, 45.582752109365686 ], [ -73.841271549111426, 45.582811714789273 ], [ -73.841253948516894, 45.582849211123147 ], [ -73.841182273168982, 45.582892954522734 ], [ -73.841008199390075, 45.58295703022403 ], [ -73.840892789306579, 45.583017441073359 ], [ -73.840751586102741, 45.583105490558502 ], [ -73.840782349054962, 45.583132585376589 ], [ -73.84128286118937, 45.583573407431452 ], [ -73.841300540060871, 45.583588977473006 ], [ -73.8428591962914, 45.584961693217942 ], [ -73.844038036697413, 45.585996355275107 ], [ -73.845516906570708, 45.587294280818952 ], [ -73.845758866212009, 45.587516503217365 ], [ -73.846443987628732, 45.588152111397491 ], [ -73.846505305544397, 45.588208452313339 ], [ -73.846567364959611, 45.588264391592695 ], [ -73.846630160527084, 45.588319924436533 ], [ -73.84669368683555, 45.588375046072976 ], [ -73.846757938448221, 45.588429751757211 ], [ -73.84682290983875, 45.588484036780699 ], [ -73.846888595416857, 45.588537896480084 ], [ -73.846954989528356, 45.588591326219209 ], [ -73.847022086480763, 45.588644321406996 ], [ -73.847089880492092, 45.588696877497661 ], [ -73.847158365754723, 45.588748989954496 ], [ -73.847227536358744, 45.588800654295056 ], [ -73.847297386368922, 45.588851866100001 ], [ -73.847367909773027, 45.588902620941241 ], [ -73.847439100533549, 45.588952914462709 ], [ -73.847510952497757, 45.589002742344725 ], [ -73.847780327811464, 45.589181623899314 ], [ -73.849704214600521, 45.587626895160426 ], [ -73.849848573061919, 45.587726251308808 ], [ -73.852203865849788, 45.589347229267794 ], [ -73.852509527115771, 45.589557583385009 ], [ -73.852731791571955, 45.589710543225678 ], [ -73.853279503683851, 45.59008746600324 ], [ -73.853578862293645, 45.589937685740352 ], [ -73.853901443453267, 45.589776284650455 ], [ -73.854192168739843, 45.589956998021478 ], [ -73.855252738282829, 45.590616226461705 ], [ -73.855451170148825, 45.590739564844256 ], [ -73.856053002004046, 45.591113637282135 ], [ -73.86200765204228, 45.594814346791793 ], [ -73.863448373580212, 45.595708388023091 ], [ -73.864165672675142, 45.596181640684492 ], [ -73.864395997525321, 45.596333599630974 ], [ -73.865129443005515, 45.596817488473299 ], [ -73.86591548750647, 45.597358595734462 ], [ -73.870048825357657, 45.599992250521368 ], [ -73.870887208154471, 45.599578857354331 ], [ -73.871576026109523, 45.599239202293525 ], [ -73.87137083096583, 45.59897873399602 ], [ -73.871577953960056, 45.598871383147504 ], [ -73.872420334063079, 45.598434776167089 ], [ -73.872673391320944, 45.598305991725411 ], [ -73.874421826927573, 45.597402780884423 ], [ -73.875099578442914, 45.597052651690113 ], [ -73.875707418729633, 45.597670483980622 ], [ -73.879223902143835, 45.601244921137472 ], [ -73.879660903699332, 45.601689085032305 ], [ -73.879861556526635, 45.601888751208243 ], [ -73.880307096267614, 45.602369095102333 ], [ -73.880311753677788, 45.602460008085181 ], [ -73.880329562570566, 45.602807652999594 ], [ -73.880338795681723, 45.603186994073816 ], [ -73.880330739794047, 45.604558304033318 ], [ -73.880348307346168, 45.605168417458302 ], [ -73.880430811577654, 45.606640611130672 ], [ -73.880498804681793, 45.606684162366349 ], [ -73.880511847430597, 45.606692516550332 ], [ -73.882733092358421, 45.608115229925779 ], [ -73.883658686795442, 45.608708039033857 ], [ -73.885069097686056, 45.609611319476457 ], [ -73.885271096486008, 45.609740683345393 ], [ -73.885422645270651, 45.609837737440628 ], [ -73.885615456307946, 45.609961216035842 ], [ -73.885808269473117, 45.610084694295864 ], [ -73.887364230459553, 45.611081110274327 ], [ -73.887381204158302, 45.611091979660472 ], [ -73.889623446329097, 45.612527776884718 ], [ -73.891884629075449, 45.613975584886219 ], [ -73.89415552751413, 45.615429494260084 ], [ -73.896502981532223, 45.616932286809742 ], [ -73.898348896470708, 45.618136594493315 ], [ -73.898471478680506, 45.618215303946592 ], [ -73.898543189118996, 45.618261348877546 ], [ -73.899307032065352, 45.618750719452272 ], [ -73.899676445497903, 45.618987491666331 ], [ -73.899790881070032, 45.61905877581539 ], [ -73.900154436369718, 45.619290565744613 ], [ -73.902197913145301, 45.620621084766015 ], [ -73.902471592296195, 45.620888607950505 ], [ -73.904693634236367, 45.62229872429554 ], [ -73.905778402529492, 45.622987080809715 ], [ -73.907775921226886, 45.624246639327964 ], [ -73.908368608308223, 45.624638457189654 ], [ -73.909134344590839, 45.625144549982103 ], [ -73.909265226260317, 45.625228167043133 ], [ -73.909786132869471, 45.625540972710382 ], [ -73.909797218896557, 45.625532657909211 ], [ -73.9098310000536, 45.625507321206968 ], [ -73.910055068445359, 45.62565233724974 ], [ -73.911012207431, 45.626271776914137 ], [ -73.911783873218099, 45.62677116364393 ], [ -73.912208087843325, 45.627045691957747 ], [ -73.91263230580077, 45.627320218698642 ], [ -73.913152730970694, 45.627656997175194 ], [ -73.913156423509207, 45.627659386701445 ], [ -73.913768537394617, 45.628055491327927 ], [ -73.914061563647152, 45.628245108176763 ], [ -73.914205238388774, 45.628338079130828 ], [ -73.914348913515141, 45.628431049856367 ], [ -73.914506956519546, 45.628533317310485 ], [ -73.914665001857998, 45.628635583131995 ], [ -73.914807807592339, 45.628727992269027 ], [ -73.914828791928528, 45.628741570995366 ], [ -73.914863511410829, 45.62876403758964 ], [ -73.915332652132008, 45.629067604804803 ], [ -73.915812884042552, 45.629378343386989 ], [ -73.916161714221531, 45.62960405379728 ], [ -73.916509844773117, 45.629829308628317 ], [ -73.916856344718681, 45.63005350551353 ], [ -73.917203773188831, 45.630278300335178 ], [ -73.917551213714532, 45.630503100076517 ], [ -73.917898558749528, 45.630727835169587 ], [ -73.918245730152492, 45.630952454908353 ], [ -73.918592694449515, 45.631176937614356 ], [ -73.919119713323937, 45.631517908510261 ], [ -73.919563153362816, 45.631804800409988 ], [ -73.919814368322477, 45.631967326583542 ], [ -73.920279345111041, 45.632268144288879 ], [ -73.920317683831357, 45.632292947234113 ], [ -73.920403310040697, 45.632348342657956 ], [ -73.920463351176068, 45.632387185963069 ], [ -73.920918901323148, 45.632681898414639 ], [ -73.921270652049373, 45.632906932532137 ], [ -73.925258897155373, 45.635454191809529 ], [ -73.92525850890587, 45.635563693501147 ], [ -73.928244956605354, 45.637515625222747 ], [ -73.928858114502233, 45.63790896973584 ], [ -73.929233769269899, 45.638149951226318 ], [ -73.929850900971161, 45.638545828233887 ], [ -73.930690396438024, 45.639093900120322 ], [ -73.931772137397999, 45.639785933514659 ], [ -73.931085556067529, 45.639979072648167 ], [ -73.930712988486917, 45.640176630077434 ], [ -73.930044580950792, 45.640667238495077 ], [ -73.927976520670384, 45.639239482811661 ], [ -73.926150789824959, 45.637976928825452 ], [ -73.92579835458551, 45.637737234577493 ], [ -73.924729504190637, 45.637008920003822 ], [ -73.923596016744725, 45.636228915271559 ], [ -73.923206241612007, 45.635960602074519 ], [ -73.923079294443966, 45.635873090333654 ], [ -73.922626505615014, 45.63555941627969 ], [ -73.919484480030476, 45.633382605378642 ], [ -73.919045140933122, 45.633478501195995 ], [ -73.918966852286644, 45.633567827305264 ], [ -73.918898946355853, 45.633645306625326 ], [ -73.918612597327908, 45.633758609150426 ], [ -73.918374437629282, 45.633791173348712 ], [ -73.917837400640991, 45.633687553614308 ], [ -73.916815665226295, 45.633702002937355 ], [ -73.916706743181408, 45.633703543069132 ], [ -73.916646659610009, 45.633720129992071 ], [ -73.916304755689055, 45.633814472101889 ], [ -73.915178468185687, 45.633932989069869 ], [ -73.914927768432364, 45.633959368119541 ], [ -73.914846391486336, 45.63396749211271 ], [ -73.913883318904951, 45.634063631033264 ], [ -73.912599987746205, 45.634333855735171 ], [ -73.912459369823551, 45.63436346392325 ], [ -73.911395077117206, 45.634558684806521 ], [ -73.910163151975397, 45.634804634962826 ], [ -73.909711193827505, 45.6348948631802 ], [ -73.908885731650344, 45.635094485839595 ], [ -73.908864852741274, 45.635100157462823 ], [ -73.907960358195197, 45.635345533286177 ], [ -73.907666944179397, 45.635391414469133 ], [ -73.906398210271178, 45.635589797021161 ], [ -73.90472671225092, 45.635839222886212 ], [ -73.90425772578692, 45.635888897943467 ], [ -73.90338492615605, 45.635668647179521 ], [ -73.903191088042945, 45.635652432788078 ], [ -73.902828708665183, 45.635622109388471 ], [ -73.901615391089791, 45.635913361314046 ], [ -73.900531027384389, 45.636173644946702 ], [ -73.899877406532696, 45.636209120123418 ], [ -73.899809887539419, 45.636270652341018 ], [ -73.899797536706998, 45.636291218713666 ], [ -73.899650286706802, 45.636536415432197 ], [ -73.899581111981632, 45.636544604185723 ], [ -73.899509910442276, 45.636553043756138 ], [ -73.89886229917937, 45.636629754440079 ], [ -73.89831630274783, 45.636777466633418 ], [ -73.897217091981332, 45.637072818293277 ], [ -73.896860949490843, 45.637158393062094 ], [ -73.896705826752438, 45.637195665897913 ], [ -73.895898894670438, 45.637339245019064 ], [ -73.895013675701705, 45.637397555656221 ], [ -73.893456769919368, 45.637573084738747 ], [ -73.893064538065502, 45.637302913591341 ], [ -73.892950825421806, 45.637165200062803 ], [ -73.892733563330751, 45.63681852578231 ], [ -73.892478409777027, 45.636805752345651 ], [ -73.892280450577331, 45.636770745312553 ], [ -73.892000419829827, 45.636705596587653 ], [ -73.891760468878175, 45.636551371300932 ], [ -73.891517298819281, 45.636559106564619 ], [ -73.893048250428379, 45.637611536657857 ], [ -73.894635137588551, 45.638702435287492 ], [ -73.895054527015986, 45.638990657378216 ], [ -73.894741637123957, 45.639111086824137 ], [ -73.894645479065204, 45.639148097581817 ], [ -73.894303079092452, 45.639279883633272 ], [ -73.893765419996058, 45.639489110139117 ], [ -73.893737499891287, 45.639499974538239 ], [ -73.893702732368709, 45.639475666895493 ], [ -73.893137602441328, 45.639679543883275 ], [ -73.892972807884007, 45.639551758549935 ], [ -73.892547674980705, 45.639222097313095 ], [ -73.892331172942107, 45.639290597622555 ], [ -73.891775334500892, 45.639466459606197 ], [ -73.891554480059781, 45.639536334796787 ], [ -73.891046734275392, 45.639697118335711 ], [ -73.890695907831187, 45.639808083431014 ], [ -73.890030567134971, 45.640018525265837 ], [ -73.890534471867014, 45.640367191681179 ], [ -73.890001316314113, 45.640632763640056 ], [ -73.88973360370008, 45.640738997479239 ], [ -73.889412483909567, 45.640823521113198 ], [ -73.88890655237735, 45.640904636417595 ], [ -73.888525397268381, 45.640965763578322 ], [ -73.888193792182605, 45.64101894309362 ], [ -73.888068266003032, 45.641036294943973 ], [ -73.887727911562934, 45.64079452599843 ], [ -73.887371544869907, 45.640549489720051 ], [ -73.885996692360322, 45.639607417205511 ], [ -73.885995236980293, 45.639606419928313 ], [ -73.884850412157476, 45.638821462397154 ], [ -73.884611931802283, 45.638944407266528 ], [ -73.884326376118494, 45.639091619724731 ], [ -73.884078904329456, 45.639219197599125 ], [ -73.883862498653386, 45.639181606362222 ], [ -73.883418304741681, 45.639104445223545 ], [ -73.883132002422371, 45.639054710476948 ], [ -73.882879150605234, 45.639010785887699 ], [ -73.882844701867441, 45.639010139151431 ], [ -73.882549855494233, 45.639004603323301 ], [ -73.882255009174131, 45.638999066734009 ], [ -73.881999060760833, 45.638994259950337 ], [ -73.881961709211026, 45.638985532796021 ], [ -73.881737335566086, 45.638933107833175 ], [ -73.880503989194636, 45.638644926453416 ], [ -73.880159423827919, 45.63864741430725 ], [ -73.879930648279441, 45.638767131832033 ], [ -73.879915630757964, 45.638955541502497 ], [ -73.879689594073369, 45.639444941250588 ], [ -73.879519344124333, 45.639729589709106 ], [ -73.878930583654281, 45.639933572079812 ], [ -73.877465487346427, 45.639926652606178 ], [ -73.877296962936725, 45.640045994771668 ], [ -73.877517698742849, 45.640393118638229 ], [ -73.877416313270245, 45.640424488475858 ], [ -73.877388253201275, 45.640439809386528 ], [ -73.877344420417074, 45.640463742230743 ], [ -73.876887166331116, 45.640713341468135 ], [ -73.876339874418605, 45.640867944395303 ], [ -73.87631199895813, 45.640848717049721 ], [ -73.876185574730727, 45.640592981191084 ], [ -73.876118756841521, 45.640568402109501 ], [ -73.875865120842107, 45.640679051107369 ], [ -73.875890666902919, 45.640752815418644 ], [ -73.875787258230858, 45.640721634864796 ], [ -73.875570757003445, 45.640753471647315 ], [ -73.875332200411123, 45.640790473472769 ], [ -73.875376547100743, 45.640918722603821 ], [ -73.875422299062677, 45.641051035712138 ], [ -73.875305001549279, 45.641076304411719 ], [ -73.875187692683966, 45.641101575565521 ], [ -73.875334686349746, 45.64118775453916 ], [ -73.875296470417013, 45.641291296580626 ], [ -73.875172031459144, 45.641628454514837 ], [ -73.87473363019366, 45.641707250120433 ], [ -73.874047226018106, 45.641830616465505 ], [ -73.873813215243104, 45.641417779461662 ], [ -73.873681695330205, 45.64144823455522 ], [ -73.873554295201458, 45.641477735658739 ], [ -73.873205730506527, 45.641545023475445 ], [ -73.873200821140458, 45.641545971188407 ], [ -73.872857165798777, 45.641612311280554 ], [ -73.872856972201802, 45.641612348661106 ], [ -73.872699872474129, 45.641642674792017 ], [ -73.872558134600183, 45.641670035513187 ], [ -73.872550539946246, 45.641671501578088 ], [ -73.872542945304474, 45.641672967606453 ], [ -73.872042901373973, 45.64176949276365 ], [ -73.871699682538832, 45.641835743978021 ], [ -73.871662277484063, 45.641842964166763 ], [ -73.871633221351402, 45.641848572787673 ], [ -73.87276159727918, 45.642620608053832 ], [ -73.87400372010346, 45.643470431339964 ], [ -73.874126683368715, 45.643553631108205 ], [ -73.87491127426054, 45.644084538775388 ], [ -73.875266163988925, 45.644324676261718 ], [ -73.87590670016759, 45.644758089457063 ], [ -73.876157864947984, 45.644928035090224 ], [ -73.876574434978338, 45.645209895372062 ], [ -73.876739359339794, 45.645321485556977 ], [ -73.876928617181989, 45.645449539254365 ], [ -73.877117876518142, 45.645577593089421 ], [ -73.877307136072133, 45.645705646157559 ], [ -73.877496397145663, 45.645833699345296 ], [ -73.877690279964327, 45.645964878652592 ], [ -73.877838238673661, 45.646064985498363 ], [ -73.878115661523964, 45.646252684540627 ], [ -73.878192267024346, 45.646304514026617 ], [ -73.878588442391333, 45.646572554632762 ], [ -73.878962169948224, 45.646825404083962 ], [ -73.879139139928299, 45.646945133821383 ], [ -73.879518393330116, 45.647201716547102 ], [ -73.879612022558945, 45.64726506056229 ], [ -73.879938896923861, 45.647486202733816 ], [ -73.880107023802921, 45.647599945526238 ], [ -73.880275061903617, 45.647713627545706 ], [ -73.880443099382276, 45.647827308427075 ], [ -73.880611138855258, 45.647940989943287 ], [ -73.880779178995112, 45.648054671198942 ], [ -73.880947219814743, 45.648168352211982 ], [ -73.881126340731484, 45.648289528219991 ], [ -73.881274068765123, 45.648389466202246 ], [ -73.881551062034148, 45.64857685061375 ], [ -73.881626868134418, 45.648628132671547 ], [ -73.881982512393535, 45.648868720533969 ], [ -73.882369084658009, 45.649130227080633 ], [ -73.882504702929722, 45.649221968598368 ], [ -73.882167897691346, 45.649467064060055 ], [ -73.881941133990736, 45.649632080099735 ], [ -73.881778324341226, 45.649750556535139 ], [ -73.88155921209372, 45.649910001546147 ], [ -73.881360880743401, 45.649775676348305 ], [ -73.881178055937824, 45.649651851257843 ], [ -73.881009259109931, 45.649537527081598 ], [ -73.880774218656015, 45.649378336168951 ], [ -73.880425221021014, 45.649141959786753 ], [ -73.880357325945852, 45.649192782751605 ], [ -73.88001828656769, 45.649446567978607 ], [ -73.879842493498728, 45.649578154735124 ], [ -73.879694156605936, 45.649689188956529 ], [ -73.879529240701231, 45.649812632593388 ], [ -73.879380902576983, 45.649923667307228 ], [ -73.879232563860612, 45.650034700928366 ], [ -73.879084224558198, 45.65014573435657 ], [ -73.878935883386774, 45.650256767596133 ], [ -73.878876691783134, 45.650301073998236 ], [ -73.878709538131616, 45.650189339668536 ], [ -73.878542385144669, 45.650077605089983 ], [ -73.878375234105278, 45.649965870258285 ], [ -73.878208081164544, 45.649854135186239 ], [ -73.878040930171352, 45.649742399861054 ], [ -73.877705024354668, 45.649517853988932 ], [ -73.87758444842666, 45.649436967303529 ], [ -73.877426920635486, 45.649331289249865 ], [ -73.877270048148432, 45.649226051524664 ], [ -73.877113174965857, 45.649120813584503 ], [ -73.876956304936627, 45.649015575416641 ], [ -73.876861135435178, 45.648951730407894 ], [ -73.876801189573314, 45.648909035502911 ], [ -73.876648783825829, 45.648800490641733 ], [ -73.876508804488026, 45.64870079484789 ], [ -73.876458067019911, 45.648666143501138 ], [ -73.876218578667817, 45.648502583823294 ], [ -73.876184410941377, 45.648479993868143 ], [ -73.875998336849648, 45.648356966602933 ], [ -73.87589824405984, 45.648290787557265 ], [ -73.875579820358539, 45.648080252850178 ], [ -73.87549453205645, 45.648024176551047 ], [ -73.875249018273934, 45.647862754604418 ], [ -73.875125743103936, 45.647781701860879 ], [ -73.874932300932855, 45.647654513934569 ], [ -73.874760122765551, 45.647541306309208 ], [ -73.874610424977647, 45.647442879001922 ], [ -73.874139291014814, 45.647133101708846 ], [ -73.873862209829184, 45.646950913410791 ], [ -73.873549231602965, 45.64674511960947 ], [ -73.873527693179824, 45.646730730814674 ], [ -73.873459369242923, 45.646685084026068 ], [ -73.873259562965103, 45.646551595344896 ], [ -73.87305718681759, 45.646416388846937 ], [ -73.872756123699475, 45.646215247527323 ], [ -73.872454574336103, 45.646013776758522 ], [ -73.872258668279542, 45.645882887575624 ], [ -73.872225275333548, 45.645860576445529 ], [ -73.872001245369916, 45.645710894807216 ], [ -73.871876866121085, 45.645627792772686 ], [ -73.871735834778534, 45.645533564512839 ], [ -73.871526087696409, 45.645394068293612 ], [ -73.870886714112203, 45.644968834260823 ], [ -73.87023624186898, 45.644534683939987 ], [ -73.870144626453552, 45.644471180105533 ], [ -73.870026158260117, 45.644389062580821 ], [ -73.869955280228339, 45.644339932984913 ], [ -73.869930946580709, 45.6443230659115 ], [ -73.86957151960253, 45.644087438064069 ], [ -73.868853178691722, 45.643616509335267 ], [ -73.868462364550396, 45.643360294808993 ], [ -73.868059370457132, 45.643096091338464 ], [ -73.867360727498294, 45.642638050781699 ], [ -73.867198461085039, 45.642531664852363 ], [ -73.866506245575778, 45.642616398592878 ], [ -73.866284206375369, 45.642674571500585 ], [ -73.866109197253834, 45.642858101244464 ], [ -73.865824709915202, 45.643048595921236 ], [ -73.865224313204251, 45.643450618827551 ], [ -73.864852145714096, 45.643530024967269 ], [ -73.864005530838924, 45.644819694275292 ], [ -73.863938663309355, 45.644921552438262 ], [ -73.863810441161419, 45.64511686835354 ], [ -73.863882288749579, 45.645137995879431 ], [ -73.864535538952509, 45.645330083855491 ], [ -73.864783287795703, 45.64542486572492 ], [ -73.866121514796603, 45.64593681837394 ], [ -73.86715375316372, 45.646521610480313 ], [ -73.869297629313436, 45.647736107890125 ], [ -73.872084006471439, 45.649649367117618 ], [ -73.876864559211199, 45.652931457609135 ], [ -73.879230463563133, 45.654555553075156 ], [ -73.879645668079874, 45.654838789744886 ], [ -73.87985424229079, 45.654979704914979 ], [ -73.880063461607918, 45.655120149360783 ], [ -73.880470347260641, 45.655390414576082 ] ] ] } }

]
}
