{
"type": "FeatureCollection",
"crs": { "type": "name", "properties": { "name": "urn:ogc:def:crs:EPSG::32188" } },
                                                                                                                                  
"features": [
{ "type": "Feature", "properties": { "gid": 7, "co_mrc": 730, "nm_mrc": "Thérèse-De Blainville", "co_reg": 15, "nm_reg": "Laurentides", "secteur": "Couronne nord" }, "geometry": { "type": "Polygon", "coordinates": [ [ [ 275148.05217415642, 5057347.9061634168 ], [ 275142.411296, 5057353.300072 ], [ 275123.70933799999, 5057370.987615 ], [ 275104.942746, 5057388.6065659998 ], [ 274804.0504, 5057670.0714 ], [ 274680.494506, 5057785.6464879997 ], [ 274546.027179, 5057911.425346 ], [ 274453.225043, 5057998.233985 ], [ 274414.668573, 5058034.306671 ], [ 274408.7827, 5058039.8124 ], [ 274403.7684, 5058044.4923 ], [ 274327.6712, 5058115.6742 ], [ 274243.486, 5058194.4217 ], [ 274149.867769, 5058281.992939 ], [ 274058.206199, 5058367.7339009997 ], [ 274058.1327, 5058367.8026 ], [ 273883.2378, 5058531.3994 ], [ 273691.0657, 5058711.1573 ], [ 273562.9633, 5058830.9938 ], [ 273259.147054, 5059115.205849 ], [ 273241.14264099998, 5059132.108337 ], [ 273223.19849, 5059149.074788 ], [ 273205.31482799997, 5059166.104987 ], [ 273187.491882, 5059183.198717 ], [ 273163.372273, 5059206.526596 ], [ 273139.36574199999, 5059229.970826 ], [ 273091.69415499998, 5059277.2061449997 ], [ 273090.852598, 5059278.0483029997 ], [ 273075.52093, 5059293.4406599998 ], [ 273060.23752299999, 5059308.880938 ], [ 273049.52048599999, 5059319.765863 ], [ 273045.00252899999, 5059324.3689869996 ], [ 273029.816096, 5059339.904654 ], [ 273014.67837199999, 5059355.4877869999 ], [ 273008.543221, 5059361.8320249999 ], [ 272999.589507, 5059371.118234 ], [ 272984.54964799999, 5059386.7958399998 ], [ 272969.55894299998, 5059402.5204539998 ], [ 272933.64974, 5059440.592396 ], [ 272880.9892, 5059496.8527 ], [ 272856.302769, 5059523.240039 ], [ 272851.00129099999, 5059528.9067909997 ], [ 272844.716044, 5059535.625094 ], [ 272711.77751, 5059677.7231599996 ], [ 272706.195314, 5059683.689973 ], [ 272662.13106799999, 5059730.7860479997 ], [ 272613.72388, 5059782.52264 ], [ 272575.94536, 5059822.899534 ], [ 272558.08959699998, 5059841.9029759998 ], [ 272540.16348, 5059860.840067 ], [ 272522.16725499998, 5059879.7105449997 ], [ 272504.10116899997, 5059898.514153 ], [ 272485.965472, 5059917.2506299997 ], [ 272467.760413, 5059935.919719 ], [ 272449.486242, 5059954.521164 ], [ 272431.14321, 5059973.054708 ], [ 272412.73157, 5059991.5200969996 ], [ 272394.25157399999, 5060009.917077 ], [ 272375.703478, 5060028.2453939999 ], [ 272357.087536, 5060046.504797 ], [ 272338.404005, 5060064.695034 ], [ 272319.65314, 5060082.815855 ], [ 272300.83520099998, 5060100.8670119997 ], [ 272281.95044599997, 5060118.848255 ], [ 272057.272141, 5060331.9269009996 ], [ 271770.30162, 5060604.0817499999 ], [ 271657.429, 5060711.127 ], [ 271677.6964, 5060733.2515 ], [ 271684.1943, 5060740.3448 ], [ 271734.3251, 5060795.0691 ], [ 271761.24652799999, 5060824.4573419997 ], [ 271765.21346499998, 5060828.78777 ], [ 271793.009549, 5060859.1308119996 ], [ 271825.13703, 5060894.20215 ], [ 271852.15631, 5060923.6972099999 ], [ 271883.505109, 5060957.918491 ], [ 271889.212263, 5060964.148597 ], [ 271906.1003, 5060982.5841 ], [ 271906.551723, 5060983.0768579999 ], [ 271953.81921099999, 5061034.675389 ], [ 271980.08717399999, 5061063.350226 ], [ 272003.923901, 5061089.3710589996 ], [ 272014.67396799999, 5061101.1061319998 ], [ 272062.36939, 5061153.17178 ], [ 272123.22431, 5061219.6027 ], [ 272134.483, 5061231.893 ], [ 272140.1744, 5061237.9822 ], [ 272171.95630199998, 5061272.117228 ], [ 272177.138662, 5061277.6832879996 ], [ 272205.315802, 5061307.946658 ], [ 272208.4728, 5061311.3374 ], [ 272233.4954, 5061338.2127 ], [ 272294.838, 5061404.097 ], [ 272359.67655799998, 5061473.916152 ], [ 272430.95388699998, 5061550.6686429996 ], [ 272497.8946, 5061622.7514 ], [ 272604.9228, 5061738.001 ], [ 272610.97455755016, 5061744.600752539 ], [ 272404.179, 5061936.3148 ], [ 272418.8365, 5061952.1193 ], [ 272501.5798, 5062041.6767 ], [ 272513.01202899998, 5062054.050381 ], [ 272536.89866499999, 5062079.9040959999 ], [ 272554.939579, 5062099.430691 ], [ 272568.3868, 5062113.9853 ], [ 272580.112173, 5062125.2287569996 ], [ 272592.324757, 5062136.939403 ], [ 272604.537342, 5062148.6500479998 ], [ 272616.749927, 5062160.360693 ], [ 272628.98870599997, 5062172.096454 ], [ 272645.37836199999, 5062187.812249 ], [ 272659.3231, 5062201.1841 ], [ 272662.57016599999, 5062205.7855139999 ], [ 272673.76686899998, 5062221.6529209996 ], [ 272683.429911, 5062235.3467889996 ], [ 272693.09299, 5062249.04071 ], [ 272702.756032, 5062262.7345789997 ], [ 272712.41910599999, 5062276.4284929996 ], [ 272722.082148, 5062290.1223609997 ], [ 272731.74522699998, 5062303.816282 ], [ 272740.981649, 5062316.9055709997 ], [ 272751.134357, 5062331.2929959996 ], [ 272761.1828, 5062345.5334 ], [ 272765.16225, 5062349.840613 ], [ 272777.96641, 5062363.6998899998 ], [ 272790.73762, 5062377.52338 ], [ 272803.50893, 5062391.3469799999 ], [ 272816.28018399997, 5062405.170517 ], [ 272829.05149, 5062418.99411 ], [ 272841.8227, 5062432.8176 ], [ 272854.593957, 5062446.641142 ], [ 272867.360775, 5062460.4595029997 ], [ 272880.5594, 5062474.746 ], [ 272893.859477, 5062486.143097 ], [ 272907.146643, 5062497.5297659999 ], [ 272920.433903, 5062508.916197 ], [ 272933.721168, 5062520.3026329996 ], [ 272947.008378, 5062531.6890219999 ], [ 272967.91876099998, 5062549.608039 ], [ 272980.99417199998, 5062560.812928 ], [ 272994.06958299997, 5062572.0178169999 ], [ 273007.145054, 5062583.222562 ], [ 273014.9392, 5062589.9019 ], [ 273024.897592, 5062594.576368 ], [ 273043.842756, 5062603.46929 ], [ 273080.55273599998, 5062620.70131 ], [ 273109.8599, 5062634.4586 ], [ 273135.7225, 5062642.4115 ], [ 273150.1754, 5062648.8422 ], [ 273157.75103, 5062652.2129039997 ], [ 273213.8801, 5062677.1874 ], [ 273241.2917, 5062689.3841 ], [ 273280.4265, 5062706.7969 ], [ 273313.1468, 5062721.3558 ], [ 273336.9119, 5062731.8965 ], [ 273363.1903, 5062743.5521 ], [ 273380.8239, 5062753.2375 ], [ 273406.0649, 5062767.1012 ], [ 273427.1024, 5062778.6562 ], [ 273448.1365, 5062790.2093 ], [ 273469.1706, 5062801.7624 ], [ 273475.1755, 5062805.0606 ], [ 273490.2048, 5062813.3155 ], [ 273511.2389, 5062824.8687 ], [ 273525.3776, 5062832.6344 ], [ 273532.273, 5062836.4218 ], [ 273553.3072, 5062847.9749 ], [ 273584.8131, 5062865.2797 ], [ 273600.1533, 5062902.2179 ], [ 273612.591, 5062932.167 ], [ 273619.5512, 5062949.0419 ], [ 273621.34330299997, 5062953.386819 ], [ 273622.13381099998, 5062955.3033889998 ], [ 273631.665349, 5062978.4124199999 ], [ 273641.1371, 5063001.3765 ], [ 273641.196887, 5063001.521451 ], [ 273650.72842499998, 5063024.630482 ], [ 273660.26614099997, 5063047.754489 ], [ 273669.797672, 5063070.8635189999 ], [ 273679.32919399999, 5063093.972538 ], [ 273688.87133, 5063117.1072899997 ], [ 273698.402852, 5063140.2163089998 ], [ 273707.93437899998, 5063163.32533 ], [ 273717.465921, 5063186.4343389999 ], [ 273729.28168, 5063215.08138 ], [ 273730.4301, 5063217.8657 ], [ 273750.889968, 5063238.967042 ], [ 273768.291013, 5063256.913657 ], [ 273785.692052, 5063274.8602679996 ], [ 273799.3331, 5063288.929 ], [ 273803.0938, 5063292.8076 ], [ 273820.495, 5063310.7544 ], [ 273837.8962, 5063328.7012 ], [ 273855.2934, 5063346.6438 ], [ 273873.0072, 5063364.9977 ], [ 273890.3669, 5063382.9846 ], [ 273907.7266, 5063400.9716 ], [ 273925.0863, 5063418.9585 ], [ 273942.446, 5063436.9455 ], [ 273964.868, 5063460.1777 ], [ 273978.3531, 5063474.1501 ], [ 273991.8703, 5063464.3352 ], [ 274006.3521, 5063476.5084 ], [ 274025.1756, 5063492.3312 ], [ 274043.9991, 5063508.154 ], [ 274062.8226, 5063523.9768 ], [ 274094.8938, 5063550.9355 ], [ 274128.9439, 5063579.5575 ], [ 274373.5259, 5063839.1227 ], [ 274427.1378, 5063788.4149 ], [ 274488.849, 5063849.8281 ], [ 274550.5597, 5063911.2408 ], [ 274659.7347, 5063808.5199 ], [ 274781.7904, 5063936.9341 ], [ 274853.0819, 5063869.2685 ], [ 274895.402, 5063912.3257 ], [ 274977.3787, 5063995.7302 ], [ 275058.3274, 5063918.8984 ], [ 275126.675, 5063980.2835 ], [ 275160.2569, 5064010.4444 ], [ 275193.9913, 5064040.7424 ], [ 275247.6386, 5063992.3159 ], [ 275373.319, 5064111.1438 ], [ 275589.9762, 5064148.3208 ], [ 275583.0813, 5064397.0487 ], [ 275687.7868, 5064443.3485 ], [ 275737.8508, 5064497.2324 ], [ 275859.9348, 5064628.6312 ], [ 275906.509, 5064584.3894 ], [ 276200.8018, 5064542.4418 ], [ 276238.9128, 5064507.0751 ], [ 276297.8504, 5064574.123 ], [ 276357.6912, 5064642.1984 ], [ 276430.9644, 5064579.1364 ], [ 276559.514, 5064714.9156 ], [ 276636.9758, 5064644.7186 ], [ 276697.4002, 5064707.2898 ], [ 276770.3976, 5064782.8808 ], [ 276822.2079, 5064814.8537 ], [ 276913.6583, 5064871.2891 ], [ 276924.5762, 5064878.8904 ], [ 277070.5223, 5064980.5007 ], [ 277073.6523, 5064982.6798 ], [ 277182.3999, 5064998.0245 ], [ 277406.5679, 5065029.6554 ], [ 277515.6321, 5065045.0447 ], [ 277375.93077, 5065178.03706 ], [ 277126.19320799998, 5065415.781308 ], [ 276875.248311, 5065654.6749109998 ], [ 276722.011622, 5065800.552612 ], [ 276715.1289, 5065807.1048 ], [ 276710.66526899999, 5065811.354069 ], [ 276632.87005099998, 5065885.4132519998 ], [ 276558.276, 5065956.425 ], [ 276547.059, 5065967.13 ], [ 275788.4976, 5066692.4047 ], [ 275706.0063, 5066771.3823 ], [ 275436.148057, 5067030.121057 ], [ 275245.27, 5067213.134 ], [ 274894.897, 5067547.583 ], [ 274865.569, 5067575.634 ], [ 274849.6151, 5067590.892799 ], [ 274812.122, 5067626.755 ], [ 274796.833, 5067641.672 ], [ 274784.8867, 5067653.1509 ], [ 274751.3214, 5067685.4029 ], [ 274559.288, 5067869.925 ], [ 273803.237, 5068596.333 ], [ 273034.33, 5069336.344 ], [ 272641.2375, 5069715.8419 ], [ 272739.257, 5069808.579 ], [ 272868.938, 5069931.097 ], [ 272875.636, 5069937.425 ], [ 272998.9, 5070053.88 ], [ 273127.321, 5070175.206 ], [ 273133.2842, 5070180.8398 ], [ 273263.128, 5070303.512 ], [ 273296.904, 5070335.42 ], [ 273390.11, 5070423.51 ], [ 273507.51, 5070534.464 ], [ 273642.347, 5070661.897 ], [ 273769.755, 5070782.311 ], [ 273901.454, 5070904.732 ], [ 274021.914, 5071016.708 ], [ 274092.7395, 5071082.5425 ], [ 274158.471, 5071143.645 ], [ 274231.336, 5071211.378 ], [ 274424.804, 5071391.219 ], [ 274555.866, 5071513.049 ], [ 274641.631, 5071592.773 ], [ 274722.145, 5071667.616 ], [ 274811.879, 5071751.028 ], [ 275010.9628, 5071932.9485 ], [ 275407.9165, 5072317.2637 ], [ 276159.6878, 5073030.0895 ], [ 276174.989, 5073049.4364 ], [ 276219.2494, 5073091.359 ], [ 276294.295257, 5073164.3422429999 ], [ 276420.226853, 5073286.812647 ], [ 276546.134267, 5073409.259533 ], [ 276586.4682, 5073448.4849 ], [ 276670.033047, 5073533.912153 ], [ 276799.2833, 5073666.043 ], [ 276145.3521, 5074369.1963 ], [ 276311.95410199999, 5074424.0817839997 ], [ 276416.3614, 5074458.4778 ], [ 276500.8837, 5074486.4262 ], [ 276520.5401, 5074492.9259 ], [ 276605.0625, 5074520.8743 ], [ 276793.6056, 5074582.9881 ], [ 276982.3239, 5074645.1595 ], [ 277171.042, 5074707.331 ], [ 277247.8244, 5074732.6262 ], [ 277364.962, 5074764.5226 ], [ 277595.373, 5074827.2633 ], [ 277661.202, 5074845.1885 ], [ 277759.9381, 5074872.0742 ], [ 277858.6821, 5074898.9621 ], [ 277957.4261, 5074925.85 ], [ 278154.9141, 5074979.6258 ], [ 278253.6582, 5075006.5136 ], [ 278352.4022, 5075033.4015 ], [ 278549.8902, 5075087.1773 ], [ 278648.6343, 5075114.0652 ], [ 278747.3783, 5075140.9531 ], [ 278846.1223, 5075167.841 ], [ 278944.8663, 5075194.7289 ], [ 279043.6104, 5075221.6168 ], [ 279109.4393, 5075239.5419 ], [ 279208.1877, 5075266.431 ], [ 279241.1072, 5075275.3949 ], [ 279274.0266, 5075284.3589 ], [ 279339.8555, 5075302.284 ], [ 279382.0962, 5075313.7861 ], [ 279405.6846, 5075320.2092 ], [ 279420.4799, 5075324.2379 ], [ 279537.3436, 5075356.0598 ], [ 280593.2542, 5074345.192 ], [ 281067.506, 5073892.0954 ], [ 281186.2516, 5073779.9817 ], [ 281832.311, 5073162.8734 ], [ 281841.1147, 5073154.4642 ], [ 282291.8462, 5072723.9308 ], [ 282425.6241, 5072598.1098 ], [ 283145.2351, 5071907.7007 ], [ 283246.3138, 5071809.8253 ], [ 283300.272997, 5071757.576197 ], [ 283308.70980399998, 5071749.467003 ], [ 283996.4823, 5071088.1552 ], [ 284094.1436, 5070994.7741 ], [ 285206.630049, 5069931.0447589997 ], [ 285490.03613899997, 5069660.059549 ], [ 285532.4439, 5069619.5104 ], [ 285542.1772, 5069610.2053 ], [ 285655.770716, 5069501.608915 ], [ 286135.101211, 5069043.364811 ], [ 286894.9912, 5068316.9034 ], [ 286811.59039899998, 5068295.3113129996 ], [ 286692.8146, 5068264.5608 ], [ 286592.8242, 5068238.6737 ], [ 286492.8336, 5068212.7866 ], [ 286486.229399, 5068211.076805 ], [ 286372.85259899998, 5068181.724112 ], [ 286289.9653, 5068160.265 ], [ 286202.78649, 5068137.694748 ], [ 286189.4041, 5068134.2301 ], [ 286089.2527, 5068108.3014 ], [ 285975.12139, 5068078.753331 ], [ 285890.2167, 5068056.7719 ], [ 285790.1109, 5068030.855 ], [ 285728.63031, 5068014.937961 ], [ 285690.0052, 5068004.9381 ], [ 285558.60898899997, 5067970.920222 ], [ 285487.7552, 5067952.5765 ], [ 285388.58699099999, 5067926.902257 ], [ 285290.3554, 5067901.4705 ], [ 285265.0239, 5067894.9124 ], [ 285478.5339, 5066845.5982 ], [ 285480.9268, 5066833.838 ], [ 285536.86619899998, 5066558.9188 ], [ 285543.3536, 5066527.0358 ], [ 285647.0349, 5066017.4847 ], [ 285649.0583, 5066007.5404 ], [ 285675.6287, 5065876.9577 ], [ 285677.84773648222, 5065867.0688965041 ], [ 285670.77892706555, 5065869.8391639572 ], [ 285659.25602536777, 5065875.7097307248 ], [ 285647.60939888435, 5065879.9101362489 ], [ 285625.21521269286, 5065885.2306499118 ], [ 285584.49200791842, 5065891.0994712664 ], [ 285560.2349553018, 5065888.8009946076 ], [ 285540.46373456472, 5065888.3109472962 ], [ 285528.84185303847, 5065888.3009463307 ], [ 285520.7749970181, 5065887.9906831877 ], [ 285515.41358964262, 5065886.6307850862 ], [ 285497.20130120398, 5065885.7907039821 ], [ 285475.7144301068, 5065888.5909743309 ], [ 285457.21345050179, 5065892.7813788895 ], [ 285430.05173590558, 5065899.5020277277 ], [ 285407.77018481569, 5065906.0499483924 ], [ 285400.97762514284, 5065908.1099140812 ], [ 285385.99042944855, 5065916.132394135 ], [ 285380.06177777913, 5065921.6488160826 ], [ 285374.84573657601, 5065923.5743517652 ], [ 285366.49018938927, 5065921.8841885896 ], [ 285351.57722856634, 5065919.0939192064 ], [ 285343.49387590791, 5065914.8935136823 ], [ 285336.65601942438, 5065912.3832713338 ], [ 285325.29808410734, 5065911.2631631941 ], [ 285307.98486244399, 5065911.2531622285 ], [ 285290.39119793329, 5065910.1430550544 ], [ 285269.19301800249, 5065905.1025684262 ], [ 285259.9466523595, 5065897.8118645521 ], [ 285254.58524498402, 5065885.2306499118 ], [ 285246.51014064462, 5065865.6387584331 ], [ 285242.9386185006, 5065852.7675157925 ], [ 285242.64992733422, 5065839.6062451508 ], [ 285245.02544321754, 5065830.375353964 ], [ 285251.89629297721, 5065813.3037057994 ], [ 285257.26594867179, 5065793.431787286 ], [ 285258.47020325152, 5065783.6408420289 ], [ 285254.86568783136, 5065770.1995443525 ], [ 285245.33887934103, 5065752.0077880481 ], [ 285230.401173561, 5065732.7059245706 ], [ 285216.0820917089, 5065714.7941953009 ], [ 285201.15263424785, 5065688.4816549839 ], [ 285192.21145640936, 5065677.8406276563 ], [ 285165.9405602694, 5065656.2885469338 ], [ 285155.2012488803, 5065653.2082495494 ], [ 285144.15674968675, 5065651.5380883049 ], [ 285128.03128596506, 5065654.8884117585 ], [ 285109.24986351276, 5065661.8890876323 ], [ 285089.54462932801, 5065667.4896283299 ], [ 285077.29587555479, 5065668.3297094349 ], [ 285061.79728408006, 5065666.0894931555 ], [ 285046.56263881456, 5065658.5387641788 ], [ 285030.14848392649, 5065652.9282225147 ], [ 285011.89618812234, 5065649.264667307 ], [ 285002.01197805721, 5065643.9832483018 ], [ 284974.05166614067, 5065633.6163580706 ], [ 284956.449753311, 5065623.5453857789 ], [ 284939.73865893751, 5065610.954170173 ], [ 284928.40546857758, 5065598.0729265669 ], [ 284918.54872732569, 5065591.6323047634 ], [ 284896.77316506213, 5065580.441224332 ], [ 284870.79920840758, 5065573.4405484591 ], [ 284837.36877134157, 5065563.3695761673 ], [ 284812.61556590488, 5065559.1691706441 ], [ 284802.16494568216, 5065558.6091165738 ], [ 284782.17102033104, 5065564.489684307 ], [ 284763.67004072608, 5065570.3802530058 ], [ 284750.55521345366, 5065568.1400367264 ], [ 284739.51071426016, 5065557.7790364344 ], [ 284735.03187702183, 5065543.7976866197 ], [ 284730.26434861717, 5065523.6357401051 ], [ 284723.98737782834, 5065507.414174011 ], [ 284713.83369709103, 5065495.6530385446 ], [ 284700.39718537609, 5065481.941714799 ], [ 284685.80590899568, 5065465.1500936691 ], [ 284672.35290064273, 5065456.4692555871 ], [ 284660.73101911641, 5065448.9185266094 ], [ 284649.38958043751, 5065435.7672569333 ], [ 284644.62205203279, 5065424.2861485016 ], [ 284635.26845824235, 5065410.1447832379 ], [ 284630.41844664724, 5065399.7937839115 ], [ 284632.1182, 5065390.8378 ], [ 284655.792923, 5065271.1385239996 ], [ 284662.95248799998, 5065234.9398 ], [ 284670.3449, 5065197.5638 ], [ 284672.6169, 5065186.0768 ], [ 284683.261207, 5065132.2592789996 ], [ 284708.75045799999, 5065003.3858599998 ], [ 284856.4066, 5064256.8379 ], [ 284796.22386199998, 5064192.098438 ], [ 284710.2304, 5064099.594 ], [ 284666.012531, 5064030.4056489998 ], [ 284620.237, 5063958.78 ], [ 284564.422487, 5063930.0458249999 ], [ 284508.8501, 5063901.4363 ], [ 284453.068809, 5063872.719172 ], [ 284397.5079, 5063844.1155 ], [ 284290.4802, 5063789.0159 ], [ 284186.6419, 5063735.5583 ], [ 284144.3721, 5063731.134188 ], [ 284027.0035, 5063718.8499609996 ], [ 284006.8259, 5063716.7381 ], [ 283966.558999, 5063721.901906 ], [ 283905.08149, 5063729.7857489996 ], [ 283891.3053, 5063731.5524 ], [ 283844.5068, 5063738.2282819999 ], [ 283814.97359, 5063742.441243 ], [ 283786.30449, 5063746.530937 ], [ 283765.4147, 5063749.5109 ], [ 283725.482, 5063756.58 ], [ 283709.18898899999, 5063758.502046 ], [ 283678.519, 5063762.1201069998 ], [ 283669.492, 5063763.185 ], [ 283639.6976, 5063768.4842 ], [ 283632.2143, 5063769.81519 ], [ 283620.251, 5063771.943 ], [ 283575.335, 5063773.605 ], [ 283539.787, 5063776.159 ], [ 283516.145899, 5063781.335686 ], [ 283511.8288, 5063782.281 ], [ 283497.028, 5063785.522 ], [ 283466.818, 5063787.051 ], [ 283418.4439, 5063790.851231 ], [ 283389.041, 5063793.1611 ], [ 283358.0238, 5063793.788706 ], [ 283350.1068, 5063793.9489 ], [ 283334.5332, 5063794.2641 ], [ 283327.9972, 5063794.396346 ], [ 283297.9708, 5063795.003886 ], [ 283287.8285, 5063795.2091 ], [ 283254.7493, 5063795.8784 ], [ 283249.9291, 5063795.975928 ], [ 283221.67, 5063796.5477 ], [ 283212.4029, 5063796.7352 ], [ 283185.2565, 5063808.3835 ], [ 283154.0856, 5063821.7587 ], [ 283134.0542, 5063829.7581 ], [ 283115.93810899998, 5063835.3954159999 ], [ 283113.5707, 5063836.1321 ], [ 283106.1118, 5063839.4165 ], [ 283087.5607, 5063847.5852 ], [ 283068.137, 5063856.1355 ], [ 283038.4961, 5063866.0861 ], [ 283025.4646, 5063871.1904 ], [ 283024.1501, 5063877.5054 ], [ 283020.800922, 5063879.0029539997 ], [ 282983.43940099998, 5063895.708812 ], [ 282975.3838, 5063899.3108 ], [ 282951.790999, 5063903.639676 ], [ 282903.8578, 5063912.4346 ], [ 282866.5689, 5063919.5817 ], [ 282850.3553, 5063922.6894 ], [ 282799.5231, 5063932.4323 ], [ 282766.876, 5063938.6892 ], [ 282765.03028, 5063939.1034289999 ], [ 282734.09838899999, 5063946.045376 ], [ 282672.139601, 5063959.950593 ], [ 282638.5558, 5063967.4877 ], [ 282608.4048, 5063978.378901 ], [ 282553.80548899999, 5063998.1013679998 ], [ 282507.5953, 5064014.7935 ], [ 282492.97469, 5064009.7091389997 ], [ 282393.3599, 5063975.0678 ], [ 282363.9315, 5063976.9919039998 ], [ 282302.2015, 5063981.0279689999 ], [ 282271.4023, 5063983.0417 ], [ 282239.238388, 5063994.640866 ], [ 282206.64767899999, 5064006.3939469997 ], [ 282174.05688, 5064018.147059 ], [ 282147.1744, 5064027.8416 ], [ 282024.763, 5064096.9661 ], [ 281894.7053, 5064214.444 ], [ 281769.83487199998, 5064145.9436459998 ], [ 281766.4376, 5064144.08 ], [ 281745.15539899998, 5064132.4051909996 ], [ 281652.3841, 5064081.5135 ], [ 281631.88302299997, 5064105.1414219998 ], [ 281514.7745, 5064240.1112 ], [ 281495.9892, 5064252.0229 ], [ 281478.0559, 5064338.0547 ], [ 281461.1665, 5064348.90051 ], [ 281392.818998, 5064392.7909979997 ], [ 281335.3266, 5064429.7107 ], [ 281329.7629, 5064429.29559 ], [ 281212.1555, 5064420.520855 ], [ 281103.0587, 5064412.3811 ], [ 281094.4206, 5064412.3467389997 ], [ 281056.7604, 5064412.1969339997 ], [ 281019.0888, 5064412.047084 ], [ 280992.6833, 5064411.942048 ], [ 280985.431, 5064411.9132 ], [ 280960.2103, 5064411.8129059998 ], [ 280927.6973, 5064411.683612 ], [ 280922.011, 5064411.661 ], [ 280902.775501, 5064416.508004 ], [ 280890.481, 5064419.606 ], [ 280866.706, 5064419.4398 ], [ 280861.3567, 5064419.4024019996 ], [ 280825.54, 5064419.152 ], [ 280812.5703, 5064420.659399 ], [ 280752.342491, 5064427.6593549997 ], [ 280719.61259899999, 5064431.463375 ], [ 280703.2476, 5064433.365392 ], [ 280689.42, 5064434.9725 ], [ 280686.761499, 5064435.864706 ], [ 280652.726899, 5064447.2868879996 ], [ 280615.85400799999, 5064459.6616139999 ], [ 280590.8723, 5064468.0456 ], [ 280583.95050099998, 5064469.454304 ], [ 280552.764901, 5064475.8011039998 ], [ 280521.579111, 5064482.147943 ], [ 280498.1744, 5064486.9112 ], [ 280491.09909, 5064485.108021 ], [ 280434.7474, 5064470.746508 ], [ 280378.3973, 5064456.3854 ], [ 280316.6968, 5064464.5163709996 ], [ 280254.9904, 5064472.648121 ], [ 280193.67501, 5064480.728342 ], [ 280133.3868, 5064488.6732 ], [ 280074.134, 5064486.2074 ], [ 280013.2827, 5064487.8293 ], [ 279892.0491, 5064492.0004 ], [ 279829.83196, 5064495.012222 ], [ 279774.3267, 5064497.6991 ], [ 279772.15546, 5064500.27656 ], [ 279755.98859899997, 5064519.4681 ], [ 279753.2231, 5064522.751 ], [ 279693.2119, 5064541.3199 ], [ 279628.325, 5064556.985 ], [ 279566.38920099998, 5064566.643705 ], [ 279516.6582, 5064574.399108 ], [ 279510.6498, 5064575.3361 ], [ 279497.662, 5064577.3615 ], [ 279477.8252, 5064580.7254 ], [ 279392.90990099998, 5064592.9843239998 ], [ 279362.429199, 5064597.384716 ], [ 279316.2864, 5064604.04619 ], [ 279270.143591, 5064610.707665 ], [ 279265.7282, 5064611.3451 ], [ 279225.0166, 5064613.6581429997 ], [ 279180.5882, 5064616.182358 ], [ 279149.2587, 5064617.9623539997 ], [ 279141.9412, 5064618.3781 ], [ 279030.5663, 5064613.440866 ], [ 279018.8842, 5064612.923 ], [ 278931.0087, 5064661.5895 ], [ 278899.6609, 5064665.071871 ], [ 278838.3414, 5064671.883744 ], [ 278807.7886, 5064675.2778 ], [ 278774.442982, 5064690.5532649998 ], [ 278707.983391, 5064720.9980809996 ], [ 278660.8486, 5064742.5903 ], [ 278586.544591, 5064729.103845 ], [ 278561.714, 5064724.597 ], [ 278527.0934, 5064727.325105 ], [ 278441.841, 5064734.043 ], [ 278390.724, 5064731.361 ], [ 278253.31, 5064686.086 ], [ 278104.3409, 5064662.738 ], [ 278075.9677, 5064661.783 ], [ 278029.543, 5064663.403 ], [ 277961.59883899998, 5064623.142028 ], [ 278320.0583, 5064284.0248 ], [ 278702.12090899999, 5063922.5781089999 ], [ 278777.460709, 5063851.3036089996 ], [ 278928.14010299998, 5063708.754803 ], [ 279003.479903, 5063637.4803029997 ], [ 279053.6989, 5063589.9711 ], [ 279078.81953699997, 5063566.205937 ], [ 279138.6418, 5063509.6116 ], [ 279154.159257, 5063494.9314569999 ], [ 279202.3526, 5063449.3386 ], [ 279237.9209, 5063415.6896 ], [ 279257.2578, 5063396.7477 ], [ 279274.3953, 5063379.9601 ], [ 279291.9026, 5063362.8103 ], [ 279305.45888, 5063349.53088 ], [ 279457.53490099998, 5063200.5607009996 ], [ 279484.4947, 5063174.1515 ], [ 279495.554085, 5063163.317985 ], [ 279552.3481, 5063107.6839 ], [ 279609.14211, 5063052.04982 ], [ 279665.93628099997, 5062996.415581 ], [ 279722.73049799999, 5062940.781298 ], [ 279746.0421, 5062917.9458 ], [ 279760.70868699998, 5062903.727187 ], [ 279817.34808199998, 5062848.8177819997 ], [ 279836.07096699998, 5062830.666767 ], [ 279911.897384, 5062757.1563839996 ], [ 279949.810491, 5062720.4012909997 ], [ 279972.557838, 5062698.3487379998 ], [ 279976.51065, 5062694.51666 ], [ 279987.215489, 5062684.138789 ], [ 280069.982091, 5062603.900201 ], [ 280194.370094, 5062483.311494 ], [ 280207.8036, 5062470.2883 ], [ 280222.0258, 5062456.5005 ], [ 280247.1893, 5062432.1056 ], [ 280254.254292, 5062425.256404 ], [ 280278.1967, 5062402.0453 ], [ 280311.0262, 5062370.2185 ], [ 280331.1182, 5062350.74026 ], [ 280332.1376, 5062349.752 ], [ 280374.4954, 5062308.6879 ], [ 280388.7198, 5062294.898 ], [ 280394.6465, 5062289.1523 ], [ 280416.7601, 5062268.0146 ], [ 280436.29973, 5062249.408404 ], [ 280452.2831, 5062234.1886 ], [ 280459.1379, 5062227.9897 ], [ 280501.6846, 5062187.8044 ], [ 280522.4767, 5062168.1663 ], [ 280533.5554, 5062157.7025 ], [ 280554.2727, 5062138.1351 ], [ 280570.4782, 5062123.3968 ], [ 280587.390108, 5062108.0160659999 ], [ 280588.5678, 5062106.945 ], [ 280589.545, 5062107.9879 ], [ 280740.7468, 5061971.5509 ], [ 280749.5259, 5061963.6762 ], [ 280762.812218, 5061951.186518 ], [ 281021.483, 5061708.0254 ], [ 281061.1005, 5061670.9586 ], [ 281096.042, 5061638.2667 ], [ 281097.823, 5061636.6004 ], [ 281121.4004, 5061613.9736 ], [ 281356.9255, 5061390.6943 ], [ 281414.9445, 5061335.2663 ], [ 281445.6089, 5061305.4452 ], [ 281460.0373, 5061291.4136 ], [ 281473.719395, 5061278.107795 ], [ 281483.2135, 5061268.8748 ], [ 281529.5393, 5061223.823 ], [ 281566.6024, 5061187.7793 ], [ 281588.625444, 5061166.361924 ], [ 281662.041, 5061094.9654 ], [ 281680.6186, 5061076.8987 ], [ 281691.9927, 5061065.8374 ], [ 281731.949941, 5061026.979031 ], [ 281754.899, 5061004.6611 ], [ 281775.8709, 5060984.266 ], [ 281818.0657, 5060943.2316 ], [ 281832.330192, 5060929.359392 ], [ 281862.3735, 5060900.1423 ], [ 281899.3009, 5060864.2305 ], [ 281908.0234, 5060855.7479 ], [ 281938.3348, 5060826.2701 ], [ 281943.9946, 5060820.854 ], [ 281987.6257, 5060779.1014 ], [ 282038.0265, 5060730.8706 ], [ 282060.0902, 5060709.8416 ], [ 282071.9797, 5060698.3002 ], [ 282112.983, 5060658.4974 ], [ 282155.4713, 5060617.9806 ], [ 282197.87988199998, 5060577.5557829998 ], [ 282209.3028, 5060566.6672 ], [ 282223.4248, 5060553.2058 ], [ 282240.4059, 5060537.0191 ], [ 282253.2534, 5060524.7727 ], [ 282282.1784, 5060497.2007 ], [ 282287.1529, 5060492.8074 ], [ 282305.1445, 5060476.9178 ], [ 282359.4251, 5060425.1731 ], [ 282570.543591, 5060223.9111909997 ], [ 282659.8442, 5060138.7798 ], [ 282718.9452, 5060082.0251 ], [ 282730.5346, 5060094.2106 ], [ 282742.795281, 5060107.101919 ], [ 282749.83119499998, 5060114.49973 ], [ 282758.618037, 5060123.7385299997 ], [ 282758.907802, 5060124.0431989999 ], [ 282766.97103199997, 5060132.521168 ], [ 282770.290426, 5060136.0112969996 ], [ 282783.083601, 5060149.462499 ], [ 282788.797482, 5060155.470278 ], [ 282798.4815, 5060165.6524 ], [ 282799.197408, 5060166.4027819997 ], [ 282819.38272, 5060187.56008 ], [ 282851.315, 5060221.03 ], [ 282919.6642, 5060149.6293 ], [ 282922.461031, 5060145.9815509999 ], [ 282933.0482, 5060132.1733 ], [ 282944.225041, 5060138.2171679996 ], [ 282960.3714, 5060146.9483 ], [ 282981.1601, 5060158.1614 ], [ 282995.9111, 5060166.1179 ], [ 283010.662, 5060174.0743 ], [ 283025.413, 5060182.0308 ], [ 283040.1641, 5060189.9873 ], [ 283054.915, 5060197.9437 ], [ 283069.666, 5060205.9002 ], [ 283088.47691899998, 5060216.036732 ], [ 283095.2422, 5060219.6823 ], [ 283100.59987899999, 5060228.4791909996 ], [ 283104.152637, 5060234.3125419999 ], [ 283110.669132, 5060245.0121189998 ], [ 283115.783523, 5060253.409548 ], [ 283116.103698, 5060253.935251 ], [ 283125.949379, 5060270.101091 ], [ 283135.79506, 5060286.2669299999 ], [ 283142.73833099997, 5060297.667239 ], [ 283168.3352, 5060339.6953 ], [ 283200.2957, 5060392.1731 ], [ 283192.93038099998, 5060480.442683 ], [ 283177.1624, 5060669.2469 ], [ 283310.355301, 5060532.625412 ], [ 283323.26950499997, 5060519.378777 ], [ 283331.38102099998, 5060511.058458 ], [ 283407.3276, 5060433.1569 ], [ 283539.65649, 5060297.2684 ], [ 283585.0748, 5060250.6284 ], [ 283599.8242, 5060266.4119 ], [ 283645.713486, 5060315.517214 ], [ 283680.1597, 5060352.3775 ], [ 283723.895841, 5060399.17872 ], [ 283764.1148, 5060442.2163 ], [ 283823.3332, 5060505.6112 ], [ 283823.867647, 5060506.184553 ], [ 283870.02529, 5060555.7023099996 ], [ 283904.08459099999, 5060592.2410089998 ], [ 283924.52017199999, 5060614.1642279997 ], [ 283971.608924, 5060664.6808759999 ], [ 283997.3567, 5060692.303 ], [ 284036.6869, 5060652.2737 ], [ 284058.933, 5060629.6321 ], [ 284143.4277, 5060543.6356 ], [ 284217.5005, 5060468.2462 ], [ 284324.6626, 5060359.2731 ], [ 284350.3156, 5060333.1265 ], [ 284405.8704, 5060276.5027 ], [ 284424.52142, 5060257.4928099997 ], [ 284509.2729, 5060171.1106 ], [ 284509.36021, 5060171.02161 ], [ 284527.942287, 5060152.081987 ], [ 284614.8992, 5060063.4519 ], [ 284631.0909, 5060079.2895 ], [ 284650.052104, 5060097.802996 ], [ 284656.5146, 5060104.1129 ], [ 284696.506, 5060143.1599 ], [ 284718.3147, 5060164.4536 ], [ 284740.1234, 5060185.7473 ], [ 284775.1074, 5060219.9052 ], [ 284793.1939, 5060190.7142 ], [ 284801.4209, 5060177.4363 ], [ 284831.02216, 5060129.7007799996 ], [ 284832.079, 5060127.9965 ], [ 284839.88519499998, 5060115.4636329999 ], [ 284850.036211, 5060099.1661499999 ], [ 284850.6155, 5060098.2361 ], [ 284860.187389, 5060082.8684299998 ], [ 284866.524, 5060072.695 ], [ 284870.29691899999, 5060066.545349 ], [ 284880.337437, 5060050.179858 ], [ 284887.3228, 5060038.7941 ], [ 284890.39837499999, 5060033.827087 ], [ 284903.3729, 5060012.8734 ], [ 284903.64945099998, 5060012.4267699998 ], [ 284913.60898, 5059996.3421299998 ], [ 284916.2129, 5059992.1368 ], [ 284922.289583, 5059982.323032 ], [ 284929.2182, 5059971.1334 ], [ 284930.91886899999, 5059968.386819 ], [ 284939.548129, 5059954.4505599998 ], [ 284941.2525, 5059951.698 ], [ 284948.177495, 5059940.5142369997 ], [ 284953.2871, 5059932.2623 ], [ 284956.80675799999, 5059926.578079 ], [ 284965.3214, 5059912.827 ], [ 284965.441079, 5059912.6349189999 ], [ 284976.56301099999, 5059894.7845409997 ], [ 284976.8284, 5059894.3586 ], [ 284984.95313099999, 5059881.40885 ], [ 284986.7732, 5059878.5079 ], [ 284993.311224, 5059868.013053 ], [ 284996.4432, 5059862.9856 ], [ 285001.66014, 5059854.61136 ], [ 285006.1132, 5059847.4633 ], [ 285010.009052, 5059841.209671 ], [ 285015.7832, 5059831.941 ], [ 285018.35789, 5059827.8081299998 ], [ 285025.4532, 5059816.4188 ], [ 285026.715624, 5059814.4120519999 ], [ 285034.9388, 5059801.3405 ], [ 285042.25192299997, 5059789.822052 ], [ 285047.9242, 5059780.888 ], [ 285054.933251, 5059769.7947709998 ], [ 285057.328, 5059766.0046 ], [ 285067.0857, 5059750.5609 ], [ 285076.796862, 5059735.187771 ], [ 285076.8422, 5059735.116 ], [ 285086.673689, 5059719.459289 ], [ 285087.3847, 5059718.327 ], [ 285096.483338, 5059703.837359 ], [ 285097.9272, 5059701.538 ], [ 285106.29320299998, 5059688.215202 ], [ 285107.6588, 5059686.0405 ], [ 285116.102972, 5059672.593081 ], [ 285117.3903, 5059670.543 ], [ 285125.91272099997, 5059656.971021 ], [ 285127.1219, 5059655.0454 ], [ 285135.722591, 5059641.348701 ], [ 285137.3401, 5059638.7728 ], [ 285147.06781199999, 5059623.281351 ], [ 285147.7204, 5059622.2421 ], [ 285158.2629, 5059605.4531 ], [ 285168.9676, 5059588.4058 ], [ 285179.8346, 5059571.1001 ], [ 285190.8733, 5059553.521 ], [ 285200.855946, 5059538.3628669996 ], [ 285202.4407, 5059535.9565 ], [ 285202.78322899999, 5059535.3984589996 ], [ 285208.00229199999, 5059526.746131 ], [ 285211.1881, 5059521.4646 ], [ 285213.48, 5059517.6609 ], [ 285216.2822, 5059513.0089 ], [ 285219.9603, 5059506.9028 ], [ 285224.6622, 5059499.094 ], [ 285225.19307699997, 5059498.2472879998 ], [ 285236.140588, 5059480.786789 ], [ 285236.4895, 5059480.2303 ], [ 285249.1218, 5059461.1887 ], [ 285259.6491, 5059444.3996 ], [ 285270.2668, 5059427.6702 ], [ 285284.9715, 5059404.5084 ], [ 285299.6762, 5059381.3466 ], [ 285307.41156799998, 5059369.162479 ], [ 285310.6056, 5059364.1315 ], [ 285321.5377, 5059346.9119 ], [ 285329.1079, 5059334.9879 ], [ 285336.1552, 5059325.3343 ], [ 285349.2761, 5059304.0425 ], [ 285349.6748, 5059303.3955 ], [ 285350.434499, 5059302.1627 ], [ 285358.42989, 5059289.1882 ], [ 285361.8828, 5059283.585 ], [ 285362.292, 5059282.9209 ], [ 285366.42521199997, 5059276.2138109999 ], [ 285374.2116, 5059263.5786 ], [ 285374.421082, 5059263.239691 ], [ 285382.6094, 5059249.6689 ], [ 285385.05717699998, 5059245.684886 ], [ 285398.2463, 5059224.2182 ], [ 285405.280495, 5059212.737297 ], [ 285406.2081, 5059211.2233 ], [ 285414.0745, 5059198.1701 ], [ 285415.48231699999, 5059195.84061 ], [ 285421.9571, 5059185.1269 ], [ 285425.8084, 5059178.8849 ], [ 285429.858491, 5059172.09499 ], [ 285436.3652, 5059161.1866 ], [ 285441.681507, 5059152.529508 ], [ 285445.8922, 5059145.6728 ], [ 285454.46955899999, 5059131.7676689997 ], [ 285463.1816, 5059117.6442 ], [ 285465.676463, 5059113.6116819996 ], [ 285476.7234, 5059095.7562 ], [ 285477.682175, 5059094.1577829998 ], [ 285485.521683, 5059081.088192 ], [ 285489.3538, 5059074.6995 ], [ 285493.37739799998, 5059068.0284989998 ], [ 285501.24862199998, 5059054.9782509999 ], [ 285502.0702, 5059053.6161 ], [ 285509.22797499999, 5059041.994083 ], [ 285514.9737, 5059032.6648 ], [ 285517.29427, 5059029.0629799999 ], [ 285517.3947, 5059028.9071 ], [ 285522.6212, 5059020.7951 ], [ 285525.518125, 5059016.2323169997 ], [ 285531.9744, 5059006.0634 ], [ 285533.82613499998, 5059003.444624 ], [ 285542.644808, 5058990.973008 ], [ 285551.0028, 5058979.1529 ], [ 285559.875506, 5058965.7813069997 ], [ 285563.6805, 5058960.047 ], [ 285581.0306, 5058933.8996 ], [ 285593.8518, 5058914.7325 ], [ 285679.52214524715, 5058785.4852123316 ], [ 285589.78043410031, 5058739.0907332255 ], [ 285520.23060796154, 5058687.7357752137 ], [ 285471.38406261121, 5058657.2028274415 ], [ 285418.11641825584, 5058639.151084655 ], [ 285372.25576439768, 5058604.4577352218 ], [ 285350.05128954409, 5058562.8337166738 ], [ 285339.69140083081, 5058523.9699646132 ], [ 285339.69140083081, 5058479.555676681 ], [ 285348.56659211701, 5058429.6008538445 ], [ 285355.97358261427, 5058383.80643267 ], [ 285355.97358261427, 5058340.772277982 ], [ 285351.52773865213, 5058300.5283926772 ], [ 285344.12899647391, 5058256.1141047459 ], [ 285333.76910776063, 5058218.6404868942 ], [ 285313.05757865316, 5058178.3966015903 ], [ 285279.04151093535, 5058147.8636538181 ], [ 285225.77386657998, 5058113.170304385 ], [ 285175.45912044065, 5058082.6273556473 ], [ 285125.13612598233, 5058047.9340062141 ], [ 285094.83180183219, 5058027.1219969401 ], [ 285048.94640301692, 5057985.4979783921 ], [ 285008.99154559086, 5057932.7528861715 ], [ 284963.11439509469, 5057849.4748461796 ], [ 284933.53592301998, 5057759.2761380384 ], [ 284889.15171826986, 5057669.0674289316 ], [ 284850.66506163281, 5057610.7718008403 ], [ 284766.33424777573, 5057523.3333591865 ], [ 284621.30405410891, 5057383.1598262778 ], [ 284522.16750757641, 5057266.5785710616 ], [ 284470.37631232903, 5057190.2512021149 ], [ 284433.39084975712, 5057126.4050381528 ], [ 284377.15381054766, 5057082.0007511871 ], [ 284306.11928698176, 5057033.4260615939 ], [ 284241.01530480513, 5056969.5798976319 ], [ 284172.1088475514, 5056895.4627420679 ], [ 284147.06695094827, 5056857.1590440767 ], [ 284111.54968916537, 5056798.8634159854 ], [ 284076.04067570146, 5056735.0272529889 ], [ 284028.69532441627, 5056673.9613574455 ], [ 283978.38882659597, 5056625.3966688178 ], [ 283934.41703779786, 5056597.6139865676 ], [ 283907.46977949666, 5056580.5323374374 ], [ 283865.19714442058, 5056575.4218440503 ], [ 283816.35059907025, 5056553.2197005674 ], [ 283782.31803471438, 5056529.6174219092 ], [ 283751.26311353169, 5056497.6943399282 ], [ 283729.05039035907, 5056458.8405888332 ], [ 283702.41656818136, 5056390.8440241748 ], [ 283666.89930639841, 5056311.7363868104 ], [ 283625.45975154534, 5056256.2210271377 ], [ 283576.65444779018, 5056228.4583468176 ], [ 283527.82439907797, 5056195.1551315933 ], [ 283481.93075194367, 5056150.7408436621 ], [ 283437.53829887451, 5056093.8353497796 ], [ 283352.46513630386, 5056007.7870423356 ], [ 283271.07897234376, 5055891.2057871185 ], [ 283210.41258581023, 5055771.8542644493 ], [ 283179.33291967039, 5055680.2554211337 ], [ 283171.20007709775, 5055608.0884538479 ], [ 283157.88729016838, 5055508.1688072095 ], [ 283153.44144620624, 5055416.5699638939 ], [ 283140.1204109579, 5055322.2008531261 ], [ 283117.94068106142, 5055220.8810713124 ], [ 283086.8692632406, 5055133.4526306242 ], [ 283048.39085492259, 5055061.2856633384 ], [ 282996.59141135623, 5054998.8296335861 ], [ 282921.12754046632, 5054946.0945423311 ], [ 282839.74137650616, 5054908.6209244793 ], [ 282752.44116779498, 5054882.248378369 ], [ 282669.59505136491, 5054844.7747605173 ], [ 282600.05347354518, 5054800.360472586 ], [ 282527.5342525522, 5054747.6353822965 ], [ 282475.74305730488, 5054692.1100216582 ], [ 282423.95186205755, 5054628.2638576962 ], [ 282381.0276097774, 5054571.3683647793 ], [ 282346.99504542153, 5054514.4728718633 ], [ 282322.58002106537, 5054467.2783155134 ], [ 282297.43089631479, 5054414.5432242583 ], [ 282287.06275928247, 5054357.6377303768 ], [ 282290.0404024556, 5054303.5225058785 ], [ 282307.79903334711, 5054213.3037958061 ], [ 282338.11160581629, 5054135.5862926506 ], [ 282363.2689788859, 5054050.9281194145 ], [ 282376.59826245334, 5053962.1095445175 ], [ 282364.75367631298, 5053869.1205669921 ], [ 282353.65968720522, 5053828.8766816882 ], [ 282319.61062621127, 5053727.56690084 ], [ 282272.27352324512, 5053624.8569848174 ], [ 282199.77079889027, 5053549.9197500795 ], [ 282118.37638661114, 5053487.4637203272 ], [ 282057.71000007755, 5053433.3384948634 ], [ 282010.35640047333, 5053375.0528677376 ], [ 281976.33208443649, 5053304.266033696 ], [ 281943.78421750769, 5053233.48920062 ], [ 281918.60209948092, 5053157.1618316723 ], [ 281896.41412126541, 5053094.6958009545 ], [ 281854.98281473137, 5053012.817896137 ], [ 281812.06681077019, 5052917.0586511595 ], [ 281749.93222344771, 5052847.6719522923 ], [ 281600.46443413774, 5052731.0906970752 ], [ 281414.03592721303, 5052604.7885033609 ], [ 281308.98533592938, 5052527.0710002054 ], [ 281243.85660879564, 5052478.5063115777 ], [ 281205.3946971157, 5052449.3534970488 ], [ 281181.73026979214, 5052422.970949973 ], [ 281161.01049236557, 5052393.8381373761 ], [ 281136.60371632851, 5052361.9250563607 ], [ 281109.9698941508, 5052335.5525102504 ], [ 281081.834877908, 5052321.6711700913 ], [ 281034.51427157992, 5052318.8909016727 ], [ 280991.59001929977, 5052330.0019743796 ], [ 280941.27527316043, 5052345.263447783 ], [ 280871.71719870262, 5052357.7546537332 ], [ 280803.00870110578, 5052373.9962217584 ], [ 280737.33558491542, 5052388.2475976432 ], [ 280685.30518841598, 5052395.228271585 ], [ 280645.35857930896, 5052392.4380022017 ], [ 280589.12978841853, 5052379.9567972161 ], [ 280547.6902335654, 5052352.1841159314 ], [ 280504.79072624235, 5052317.5007674638 ], [ 280455.94418089202, 5052271.6963453228 ], [ 280386.41085139132, 5052225.9019241482 ], [ 280300.57884346909, 5052185.6480378779 ], [ 280231.0372656493, 5052166.2261628136 ], [ 280171.86382486188, 5052142.633885121 ], [ 280106.73509772809, 5052103.7701330604 ], [ 280062.34264465893, 5052055.1854425017 ], [ 280028.30183198402, 5052032.9832990188 ], [ 279973.56598683971, 5052016.3316914067 ], [ 279906.97730723594, 5052001.0702180034 ], [ 279856.67080941569, 5052005.2306196652 ], [ 279818.19240109768, 5052023.2723614862 ], [ 279767.89415159641, 5052056.5755767114 ], [ 279720.54055199219, 5052089.8987938669 ], [ 279677.63279635011, 5052110.7108031409 ], [ 279636.19324149704, 5052120.4217406726 ], [ 279579.94795396848, 5052120.411739707 ], [ 279537.05669496447, 5052102.3799988516 ], [ 279497.09358921944, 5052073.2371852892 ], [ 279451.23293536127, 5052031.59316481 ], [ 279421.62971832947, 5051995.5196821326 ], [ 279405.3805298222, 5051948.3251257828 ], [ 279397.95704268687, 5051905.3109730259 ], [ 279377.25376189844, 5051862.2868193043 ], [ 279368.37857061223, 5051812.3219955014 ], [ 279360.98807675304, 5051769.297841779 ], [ 279365.41742407711, 5051712.3923478974 ], [ 279387.62189893075, 5051648.5461839354 ], [ 279406.86522724928, 5051615.2529696766 ], [ 279408.32517971919, 5051574.9990834063 ], [ 279402.39463832998, 5051531.9749296838 ], [ 279395.00414447085, 5051482.0101058818 ], [ 279402.40288664901, 5051436.2156847073 ], [ 279403.90408071416, 5051383.4705924867 ], [ 279403.87933575705, 5051337.6861722767 ], [ 279395.00414447085, 5051282.1608116385 ], [ 279383.17605496856, 5051211.3839785624 ], [ 279383.16780664952, 5051146.1476803916 ], [ 279385.39485279017, 5051093.4125891365 ], [ 279380.94900882797, 5051050.3884354141 ], [ 279372.06556922273, 5051007.3642816916 ], [ 279346.92469279119, 5050978.2214681292 ], [ 279286.25005793857, 5050947.688520357 ], [ 279222.63077318895, 5050932.4070450226 ], [ 279148.64335140708, 5050896.3335623462 ], [ 279086.50876408454, 5050846.3687385432 ], [ 279018.45188369183, 5050776.982039676 ], [ 278954.79960566608, 5050686.7633296046 ], [ 278907.44600606186, 5050592.394218836 ], [ 278866.03944448492, 5050482.7536336994 ], [ 278845.30317042029, 5050378.6535834679 ], [ 278843.83496963128, 5050255.1416591369 ], [ 278859.35830606311, 5050151.0616108356 ], [ 278869.72644309542, 5050049.7518299883 ], [ 278890.46271716006, 5049956.7628524629 ], [ 278894.88381616509, 5049865.1540081827 ], [ 278893.41561537614, 5049794.3771751057 ], [ 278884.52392745181, 5049743.042219026 ], [ 278850.49136309593, 5049679.2060560295 ], [ 278804.62246091879, 5049645.8828388741 ], [ 278729.15034170984, 5049580.6565416688 ], [ 278641.86662963667, 5049514.0401102537 ], [ 278578.21435161092, 5049434.9324728893 ], [ 278551.61352270941, 5049380.8072474254 ], [ 278532.36194607185, 5049318.3612186378 ], [ 278520.52560825052, 5049262.8458589651 ], [ 278520.50911161245, 5049212.8810351631 ], [ 278513.12686607236, 5049161.5360781169 ], [ 278504.25992310519, 5049122.6723260563 ], [ 278483.51540072152, 5049087.9689756576 ], [ 278449.50758132274, 5049050.4953578059 ], [ 278400.68578092952, 5048990.8195964713 ], [ 278334.08885300678, 5048922.8130308473 ], [ 278281.53881240782, 5048885.3494139612 ], [ 278223.85006904742, 5048857.586733642 ], [ 278117.29003537958, 5048831.2241884973 ], [ 278051.18800659903, 5048813.7525017112 ], [ 278019.23401864123, 5048929.0636343053 ], [ 278015.55526834971, 5048963.6569740837 ], [ 278013.09726927604, 5049006.321093047 ], [ 277994.6375312662, 5049051.2854340822 ], [ 277977.42328943132, 5049092.8094429746 ], [ 277979.88953682408, 5049129.6930038603 ], [ 277990.9505326557, 5049155.0654534176 ], [ 278019.24226696027, 5049180.437902974 ], [ 278062.25725074986, 5049195.4293503081 ], [ 278084.66793357942, 5049200.2298137639 ], [ 278032.9112, 5049251.2399 ], [ 278037.4739, 5049254.2544 ], [ 278041.556, 5049256.2363 ], [ 278045.9879, 5049257.7518 ], [ 278053.3355, 5049259.5006 ], [ 278061.6162, 5049260.0835 ], [ 278069.3138, 5049259.7337 ], [ 278072.5794, 5049259.1508 ], [ 278074.925, 5049258.4522 ], [ 278078.4045, 5049256.5546 ], [ 278086.5786, 5049252.0236 ], [ 278093.6381, 5049247.6411 ], [ 278098.8673, 5049243.6514 ], [ 278103.9047, 5049240.4981 ], [ 278110.4001, 5049236.1697 ], [ 278118.0614, 5049233.6725 ], [ 278122.3751, 5049232.6554 ], [ 278129.4114, 5049233.932 ], [ 278136.8814, 5049236.6691 ], [ 278146.5412, 5049240.9976 ], [ 278153.3698, 5049244.1607 ], [ 278157.7404, 5049246.822 ], [ 278163.9838, 5049251.7892 ], [ 278167.7003, 5049256.9193 ], [ 278168.298, 5049261.6545 ], [ 278168.6719, 5049268.2771 ], [ 278170.0631, 5049272.4383 ], [ 278175.677, 5049277.2758 ], [ 278189.2912, 5049284.3389 ], [ 278198.3258, 5049291.0142 ], [ 278209.3862, 5049300.7525 ], [ 278206.9984, 5049303.7738 ], [ 278168.1493, 5049352.9293 ], [ 278166.7771, 5049354.6655 ], [ 278045.8002, 5049507.7369 ], [ 277954.3054, 5049623.1149 ], [ 277839.5288, 5049767.8521 ], [ 277820.7553, 5049792.6295 ], [ 277767.60102, 5049863.4966559997 ], [ 277762.843544, 5049869.778609 ], [ 277758.028027, 5049876.0161809996 ], [ 277753.154884, 5049882.2088369997 ], [ 277748.22453499999, 5049888.356045 ], [ 277743.237402, 5049894.4572759997 ], [ 277738.193914, 5049900.512005 ], [ 277733.09450499999, 5049906.519712 ], [ 277727.93961399997, 5049912.47988 ], [ 277722.729683, 5049918.391997 ], [ 277717.46516099997, 5049924.255556 ], [ 277712.146499, 5049930.070051 ], [ 277706.774156, 5049935.834982 ], [ 277701.34859299997, 5049941.5498559996 ], [ 277695.870277, 5049947.2141789999 ], [ 277690.339677, 5049952.8274649996 ], [ 277684.757271, 5049958.389232 ], [ 277663.824922, 5049978.3598229997 ], [ 277512.956972, 5049806.2322209999 ], [ 277501.741, 5049817.323 ], [ 277318.75144199998, 5049998.270022 ], [ 277295.0045, 5050021.7519 ], [ 277277.7368, 5050038.8269 ], [ 277235.18550899997, 5050080.903229 ], [ 277211.754526, 5050064.3607519995 ], [ 277186.50576, 5050046.5349099999 ], [ 277163.91033799999, 5050066.718108 ], [ 277081.48318, 5050140.3455689996 ], [ 277066.06132699997, 5050154.121027 ], [ 277019.288192, 5050195.9007919999 ], [ 276556.5385, 5050609.2486 ], [ 276444.5852, 5050709.1138 ], [ 276388.861992, 5050761.9613049999 ], [ 276370.96946, 5050778.93047 ], [ 276313.9932, 5050832.9664 ], [ 276252.943401, 5050893.3803939996 ], [ 275931.8299, 5051187.5442 ], [ 275866.2137, 5051141.905 ], [ 275812.3025, 5051104.4071 ], [ 275828.1763, 5051075.3865 ], [ 275811.9627, 5051063.5312 ], [ 275746.0205, 5051015.3149 ], [ 275726.212, 5051001.0945 ], [ 275589.34072099999, 5050901.353969 ], [ 275536.2837, 5050862.6904 ], [ 275489.1842, 5050931.5735 ], [ 275216.7243, 5051330.1003 ], [ 275182.867497, 5051379.622595 ], [ 275167.3198, 5051401.8861 ], [ 275132.8168, 5051455.4326 ], [ 275132.5014, 5051465.5377 ], [ 275131.2954, 5051504.1789 ], [ 275130.7751, 5051546.3394 ], [ 275132.126348, 5051698.7334089996 ], [ 275131.0776, 5051766.5433 ], [ 275125.418129, 5051930.182329 ], [ 275120.137461, 5051935.0474509997 ], [ 275119.1245, 5051935.9807 ], [ 274946.6166, 5052094.915 ], [ 274874.735, 5052161.1404 ], [ 274765.2055, 5052262.0516 ], [ 274749.518992, 5052276.5038219998 ], [ 274737.7503, 5052287.3465 ], [ 274722.7774, 5052301.1413 ], [ 274707.8044, 5052314.9361 ], [ 274586.9779, 5052426.2555 ], [ 274585.65984899999, 5052427.469839 ], [ 274411.5485, 5052587.8811 ], [ 274235.9754, 5052749.6393 ], [ 274059.657, 5052912.0843 ], [ 273877.4042, 5053079.9964 ], [ 273734.1095, 5053214.548 ], [ 273724.593207, 5053223.3427029997 ], [ 273719.0262, 5053228.4876 ], [ 273659.7277, 5053283.1691 ], [ 273631.0499, 5053309.6258 ], [ 273622.1651, 5053317.5923 ], [ 273593.94170000026, 5053343.493199999 ], [ 273435.323, 5053492.1549 ], [ 273414.1299, 5053521.9926 ], [ 273241.64, 5053679.5751 ], [ 273157.4361, 5053756.5017 ], [ 273002.3819, 5053897.2704 ], [ 272956.3871, 5053941.0495 ], [ 272896.9639, 5053997.5975 ], [ 272886.8056, 5054006.9422 ], [ 272846.3647, 5054041.9127 ], [ 272845.495528, 5054040.993072 ], [ 272842.847, 5054038.1908 ], [ 272825.4574, 5054054.3962 ], [ 272751.17633699998, 5054123.618537 ], [ 272691.290555, 5054179.425633 ], [ 272658.36947099998, 5054210.1047689999 ], [ 272625.44845, 5054240.783908 ], [ 272585.0618, 5054278.4201 ], [ 272584.775249, 5054278.6871389998 ], [ 272537.27388599998, 5054322.953586 ], [ 272514.53465099999, 5054344.1442409996 ], [ 272503.385352, 5054354.534253 ], [ 272492.23606, 5054364.9242599998 ], [ 272479.971853, 5054376.353253 ], [ 272467.707508, 5054387.7820899999 ], [ 272456.6258, 5054398.1094 ], [ 272454.99742099998, 5054399.626911 ], [ 272452.3032, 5054402.1377 ], [ 272415.898234, 5054436.063445 ], [ 272378.633007, 5054470.7908669999 ], [ 272351.564602, 5054496.015882 ], [ 272324.55070299999, 5054521.190103 ], [ 272297.66354899999, 5054546.246209 ], [ 272270.70456, 5054571.36926 ], [ 272243.744851, 5054596.4929809999 ], [ 272216.79276699998, 5054621.609597 ], [ 272189.854371, 5054646.713441 ], [ 272162.93226, 5054671.80209 ], [ 272122.03952799999, 5054709.9099279996 ], [ 272087.63227399997, 5054741.973964 ], [ 272068.14024099999, 5054760.138541 ], [ 272032.0625, 5054793.7593 ], [ 272029.0878, 5054796.5314 ], [ 272022.444075, 5054802.7226719996 ], [ 272017.7855, 5054807.064 ], [ 271982.4397, 5054840.0027 ], [ 271955.1464, 5054865.1555 ], [ 271645.700458, 5055149.8822069997 ], [ 271645.7953, 5055162.0513 ], [ 271414.1237, 5055380.2152 ], [ 271366.556, 5055424.1844 ], [ 271337.4137, 5055451.1222 ], [ 271289.5388, 5055495.3751 ], [ 271224.4205, 5055556.6354 ], [ 271140.505, 5055633.997 ], [ 271194.144, 5055655.173 ], [ 271223.306, 5055676.972 ], [ 271275.705, 5055731.215 ], [ 271436.074, 5055571.681 ], [ 271577.657, 5055430.611 ], [ 271604.991, 5055403.827 ], [ 271687.889, 5055322.445 ], [ 271775.798, 5055235.293 ], [ 271806.028, 5055205.314 ], [ 271815.8737, 5055195.5363 ], [ 271850.9902, 5055160.4905 ], [ 272094.684, 5054917.288 ], [ 272128.993, 5054927.766 ], [ 272135.14869499998, 5054937.661166 ], [ 272140.488, 5054946.244 ], [ 272162.879, 5054958.719 ], [ 272181.466, 5054962.241 ], [ 272223.276, 5054950.507 ], [ 272302.944, 5054951.698 ], [ 272311.437, 5054951.825 ], [ 272316.131, 5054953.644 ], [ 272342.842, 5054963.99 ], [ 272430.72109, 5054976.70564 ], [ 272450.282, 5054979.536 ], [ 272456.6312, 5054980.406 ], [ 272531.772, 5054990.702 ], [ 272631.98090899998, 5055020.216984 ], [ 272642.961, 5055023.451 ], [ 272726.049, 5055044.72 ], [ 272822.2345, 5055071.5609 ], [ 272857.522, 5055081.408 ], [ 272921.991, 5055103.264 ], [ 272923.622, 5055103.886 ], [ 272994.278, 5055130.796 ], [ 273017.1793, 5055135.778512 ], [ 273116.205, 5055157.323 ], [ 273246.659, 5055184.383 ], [ 273283.25, 5055189.719 ], [ 273351.172, 5055164.899 ], [ 273366.275, 5055163.021 ], [ 273394.51, 5055159.509 ], [ 273489.265312, 5055191.4019649997 ], [ 273573.949, 5055219.905 ], [ 273624.926, 5055223.593 ], [ 273630.224, 5055230.405 ], [ 273631.19829099998, 5055232.6858 ], [ 273642.814, 5055259.878 ], [ 273648.211475, 5055260.7611499997 ], [ 273653.7671, 5055261.671391 ], [ 273704.298, 5055269.945 ], [ 273746.946, 5055286.149 ], [ 273832.804, 5055318.547 ], [ 273860.61609, 5055327.9196309997 ], [ 273872.73, 5055332.002 ], [ 273935.7174, 5055347.6473 ], [ 274004.761, 5055353.787 ], [ 274126.233, 5055372.697 ], [ 274156.664, 5055342.522 ], [ 274165.454, 5055327.174 ], [ 274182.203, 5055288.564 ], [ 274202.088, 5055287.047 ], [ 274217.502, 5055283.081 ], [ 274239.298, 5055275.734 ], [ 274257.921, 5055258.503 ], [ 274276.883, 5055259.27 ], [ 274158.102, 5055376.814 ], [ 274034.9859, 5055498.6569 ], [ 274002.449, 5055530.849 ], [ 274026.9071, 5055544.1125 ], [ 274034.4236, 5055548.1887 ], [ 274061.1883, 5055562.7031 ], [ 274103.217, 5055585.749 ], [ 274105.3995, 5055586.9457 ], [ 274108.0966, 5055584.231 ], [ 274152.2636, 5055606.6722 ], [ 274165.040808, 5055592.4080079999 ], [ 274198.0034, 5055555.6093 ], [ 274214.9186, 5055563.1393 ], [ 274258.3458, 5055582.4714 ], [ 274275.6009, 5055590.1527 ], [ 274315.2704, 5055607.8278 ], [ 274342.6798, 5055620.0263 ], [ 274394.6613, 5055643.1607 ], [ 274355.5676, 5055682.1004 ], [ 274397.273797, 5055711.4118309999 ], [ 274418.200864, 5055723.116398 ], [ 274443.27949099999, 5055732.3880789997 ], [ 274482.763211, 5055741.211147 ], [ 274512.50911, 5055747.860271 ], [ 274538.388, 5055753.645 ], [ 274548.18271725811, 5055755.5259708483 ], [ 274574.585, 5055728.529 ], [ 274602.234, 5055701.163 ], [ 274708.907077, 5055595.9503769996 ], [ 274709.02, 5055595.839 ], [ 274797.848, 5055508.175 ], [ 274816.50501, 5055521.74899 ], [ 274838.844752, 5055538.002367 ], [ 274858.205, 5055552.088 ], [ 274875.055409, 5055547.8295369996 ], [ 274909.642599, 5055539.088607 ], [ 274931.935599, 5055533.454684 ], [ 274951.624, 5055528.479 ], [ 274954.3092, 5055528.3942959998 ], [ 274977.2918, 5055527.669316 ], [ 275000.2744, 5055526.9443359999 ], [ 275020.225, 5055526.315 ], [ 275023.132218, 5055525.3312449995 ], [ 275040.59612, 5055519.421751 ], [ 275136.593, 5055486.938 ], [ 275163.456, 5055487.087 ], [ 275181.354, 5055500.307 ], [ 275182.624, 5055521.24 ], [ 275200.503, 5055575.545 ], [ 275213.925, 5055607.116 ], [ 275259.93, 5055629.568 ], [ 275374.14, 5055628.26 ], [ 275387.34, 5055641.461 ], [ 275370.314, 5055680.119 ], [ 275378.234, 5055683.568 ], [ 275380.429461, 5055685.260359 ], [ 275383.859, 5055687.904 ], [ 275419.635, 5055715.475 ], [ 275462.38, 5055732.456 ], [ 275464.543, 5055730.309 ], [ 275474.265, 5055701.842 ], [ 275479.461, 5055699.086 ], [ 275499.291, 5055711.29 ], [ 275497.338, 5055719.497 ], [ 275505.383, 5055715.994 ], [ 275522.277, 5055719.453 ], [ 275540.893, 5055723.478 ], [ 275537.502708, 5055737.746921 ], [ 275534.005, 5055752.468 ], [ 275543.162061, 5055755.2333589997 ], [ 275552.32, 5055757.999 ], [ 275540.906, 5055767.63 ], [ 275543.939, 5055779.123 ], [ 275553.815, 5055816.547 ], [ 275588.0311, 5055825.143898 ], [ 275641.603, 5055838.604 ], [ 275659.631, 5055792.639 ], [ 275669.89933, 5055795.975753 ], [ 275679.846, 5055799.208 ], [ 275707.05292599997, 5055806.559302 ], [ 275707.43612199998, 5055806.6628419999 ], [ 275734.259788, 5055813.910721 ], [ 275734.274899, 5055813.9148049997 ], [ 275746.537136, 5055817.228074 ], [ 275757.60031, 5055820.217379 ], [ 275758.19310099998, 5055820.3775549997 ], [ 275758.785891, 5055820.537727 ], [ 275797.816109, 5055831.083776 ], [ 275824.60548899998, 5055838.322323 ], [ 275827.525075, 5055839.111201 ], [ 275829.793, 5055839.724 ], [ 275742.230991, 5055925.9312709998 ], [ 275645.845, 5056020.826 ], [ 275636.303, 5056030.117 ], [ 275575.41911199997, 5056089.4043119997 ], [ 275547.88021199999, 5056116.221052 ], [ 275498.17618, 5056164.6216799999 ], [ 275478.68662, 5056183.6001599999 ], [ 275446.362417, 5056215.076716 ], [ 275433.565022, 5056227.538522 ], [ 275418.87952, 5056241.83892 ], [ 275404.193969, 5056256.1393689997 ], [ 275389.50846799999, 5056270.4397679996 ], [ 275374.82291599998, 5056284.740216 ], [ 275359.778813, 5056299.389813 ], [ 275348.298183, 5056310.569383 ], [ 275326.77209099999, 5056331.530991 ], [ 275320.82806, 5056337.3191499999 ], [ 275290.08790099999, 5056367.253201 ], [ 275261.08978799998, 5056395.4908879995 ], [ 275247.358498, 5056408.862098 ], [ 275217.93201799999, 5056437.5169179998 ], [ 275210.66731599998, 5056444.591116 ], [ 275185.30522699998, 5056469.288127 ], [ 275172.260388, 5056481.9908879995 ], [ 275159.22249, 5056494.6868899995 ], [ 275146.18469299999, 5056507.382793 ], [ 275133.146794, 5056520.078795 ], [ 275120.108896, 5056532.7747959998 ], [ 275107.07099799998, 5056545.4707979998 ], [ 275093.17347899999, 5056559.003879 ], [ 275081.711696, 5056570.1650959998 ], [ 275060.220714, 5056591.0925139999 ], [ 275054.339197, 5056596.8197969999 ], [ 275026.746208, 5056623.689208 ], [ 274996.753909, 5056652.8950089999 ], [ 274986.232, 5056663.141 ], [ 275012.6137, 5056690.254 ], [ 275030.3758, 5056708.5085 ], [ 275043.1284, 5056721.6147 ], [ 275060.291, 5056739.253 ], [ 275075.6784, 5056724.2514 ], [ 275089.8628, 5056710.4225 ], [ 275102.9589, 5056697.6547 ], [ 275121.1946, 5056679.8762 ], [ 275148.2719, 5056653.4777 ], [ 275153.5907, 5056659.1007 ], [ 275180.1504, 5056687.1793 ], [ 275193.9216, 5056701.738 ], [ 275205.5419, 5056714.0228 ], [ 275218.4609, 5056727.6806 ], [ 275230.0812, 5056739.9655 ], [ 275241.7015, 5056752.2503 ], [ 275253.3218, 5056764.5351 ], [ 275264.9422, 5056776.8199 ], [ 275269.579, 5056781.722 ], [ 275282.5486, 5056769.243 ], [ 275295.5182, 5056756.764 ], [ 275308.4877, 5056744.285 ], [ 275321.4574, 5056731.806 ], [ 275334.427, 5056719.327 ], [ 275360.4908, 5056694.249 ], [ 275369.8465, 5056685.2155 ], [ 275382.0694, 5056673.4133 ], [ 275394.2415, 5056661.6603 ], [ 275406.4137, 5056649.9073 ], [ 275418.5857, 5056638.1543 ], [ 275425.9702, 5056631.0241 ], [ 275430.6203, 5056626.2573 ], [ 275442.4427, 5056614.1385 ], [ 275453.3012, 5056603.0077 ], [ 275457.2378, 5056599.1382 ], [ 275475.8192, 5056580.8736 ], [ 275478.4706, 5056578.3506 ], [ 275492.9099, 5056564.6101 ], [ 275500.6771, 5056557.2188 ], [ 275525.3869, 5056533.705 ], [ 275532.0055, 5056527.4419 ], [ 275551.0581, 5056509.4129 ], [ 275560.62466099998, 5056500.360251 ], [ 275575.636469, 5056486.154869 ], [ 275588.99817099998, 5056473.5109519996 ], [ 275600.61535099999, 5056462.517841 ], [ 275637.1776, 5056427.9197 ], [ 275658.680613, 5056407.5717129996 ], [ 275682.9696, 5056384.5874 ], [ 275684.641, 5056382.9805 ], [ 275689.943, 5056377.8828 ], [ 275705.4482, 5056362.9752 ], [ 275721.1529, 5056347.8758 ], [ 275744.516, 5056325.4131 ], [ 275767.917, 5056302.9137 ], [ 275783.1199, 5056288.2966 ], [ 275785.7113, 5056285.805 ], [ 275803.0968, 5056269.0893 ], [ 275812.7491, 5056259.8089 ], [ 275823.6937, 5056249.286 ], [ 275839.971318, 5056233.7075079996 ], [ 275889.591, 5056186.219 ], [ 275940.072, 5056137.736 ], [ 275947.18082299997, 5056130.645623 ], [ 275956.373289, 5056121.476989 ], [ 275961.873039, 5056115.991549 ], [ 275963.7612, 5056114.1083 ], [ 275991.657871, 5056087.792941 ], [ 276047.412094, 5056035.199124 ], [ 276077.745631, 5056006.585031 ], [ 276109.02482, 5055977.0788899995 ], [ 276163.252081, 5055925.925481 ], [ 276175.847, 5055914.0445 ], [ 276229.8502, 5055923.2142 ], [ 276247.1883, 5055929.6 ], [ 276260.9239, 5055949.9339 ], [ 276283.197, 5055971.0029 ], [ 276330.2028, 5056015.4675 ], [ 276359.254, 5056024.16 ], [ 276425.89988899999, 5056167.1849499997 ], [ 276431.1636, 5056178.4811 ], [ 276441.257, 5056200.1418 ], [ 276435.6672, 5056202.5152 ], [ 276384.844, 5056224.094 ], [ 276365.5802, 5056234.7153 ], [ 276261.527, 5056292.086 ], [ 276181.3638, 5056357.444 ], [ 276014.8766, 5056493.183 ], [ 275798.67823, 5056706.8145629996 ], [ 275427.78365699999, 5057073.305704 ], [ 275244.243275, 5057254.6670089997 ], [ 275212.033008, 5057286.2973199999 ], [ 275195.851877, 5057302.034753 ], [ 275179.62030299997, 5057317.720154 ], [ 275148.05217415642, 5057347.9061634168 ] ] ] } }
]
}
