<?xml version='1.0' encoding='utf-8'?>
<svg width="100%" height="100%" viewBox="0 0 22 46" xmlns="http://www.w3.org/2000/svg">
  <rect x="0.5" y="0.5" width="21" height="45" rx="2" ry="2" style="stroke-width:1;stroke:#cc0000;fill:#ff0000;" id="shield"/>
</svg>