<?xml version='1.0' encoding='utf-8'?>
<svg width="100%" height="100%" viewBox="0 0 52 17" xmlns="http://www.w3.org/2000/svg">
  <rect x="0.5" y="0.5" width="51" height="16" rx="2" ry="2" style="stroke-width:1;stroke:#cc00cc;fill:#ff00ff;" id="shield"/>
</svg>