<?xml version='1.0' encoding='utf-8'?>
<svg width="100%" height="100%" viewBox="0 0 39 42" xmlns="http://www.w3.org/2000/svg">
  <rect x="0.5" y="0.5" width="38" height="41" rx="2" ry="2" style="stroke-width:1;stroke:#cc00cc;fill:#ff00ff;" id="shield"/>
</svg>