{
"type": "FeatureCollection",
                                                                                
"features": [
{ "type": "Feature", "properties": { "Name": "", "Description": "" }, "geometry": { "type": "Polygon", "coordinates": [ [ [ -180.0, 180.0, 0.0 ], [ -180.0, -180.0, 0.0 ], [ 180.0, -180.0, 0.0 ], [ 180.0, 180.0, 0.0 ], [ -180.0, 180.0, 0.0 ] ], [[-73.339095,45.562986], [-73.330162,45.556574], [-73.321868,45.560012], [-73.312619,45.558491], [-73.312698,45.560650], [-73.308885,45.559232], [-73.304833,45.555622], [-73.303627,45.551939], [-73.305395,45.546984], [-73.295527,45.539702], [-73.297783,45.538000], [-73.302760,45.542192], [-73.301407,45.539845], [-73.302412,45.538808], [-73.307106,45.542043], [-73.309399,45.540150], [-73.311926,45.540486], [-73.315138,45.536389], [-73.322438,45.531905], [-73.326966,45.535472], [-73.326903,45.538987], [-73.330235,45.538635], [-73.336947,45.542464], [-73.341337,45.539439], [-73.352415,45.548337], [-73.345887,45.558185], [-73.339095,45.562986]]] } }

]
}
